﻿// EVENT 0059
Name "Skill: Play 191-200"

ChangeVariable(11,11,0,2,1,5)
If(1,100,0,191,0)
 If(1,11,0,1,0)
  ShowMessageFace("kinoko_fc1",0,0,2,1)
  ShowMessage("\\n<Widow>My late husband was sincere and quiet...")
  ShowMessageFace("",0,0,2,2)
  ShowMessage("Widow begins to tell a story!\nBut no one is listening...")
  EndEventProcessing()
  0()
 EndIf()
 If(1,11,0,2,0)
  ShowMessageFace("kinoko_fc1",0,0,2,3)
  ShowMessage("\\n<Widow>Today's weather is a perfect for spreading spores.\nSpread spread spread...")
  355("interrupt_skill(2941)")
  EndEventProcessing()
  0()
 EndIf()
 If(1,11,0,3,0)
  ShowMessageFace("kinoko_fc1",1,0,2,4)
  ShowMessage("\\n<Widow>Ufufufu...")
  355("interrupt_skill(3296)")
  EndEventProcessing()
  0()
 EndIf()
 If(1,11,0,4,0)
  ShowMessageFace("kinoko_fc1",0,0,2,5)
  ShowMessage("\\n<Widow>How about some salad...?")
  ShowMessageFace("",0,0,2,6)
  ShowMessage("Widow quickly whips up a salad!")
  250(bytes(0x04,0x08,0x6f,0x3a,0x0c,0x52,0x50,0x47,0x3a,0x3a,0x53,0x45,0x08,0x3a,0x0a,0x40,0x6e,0x61,0x6d,0x65,0x49,0x22,0x0a,0x49,0x74,0x65,0x6d,0x31,0x06,0x3a,0x06,0x45,0x54,0x3a,0x0b,0x40,0x70,0x69,0x74,0x63,0x68,0x69,0x69,0x3a,0x0c,0x40,0x76,0x6f,0x6c,0x75,0x6d,0x65,0x69,0x55))
  ChangeInventory_Item(382,1,0,1)
  ShowMessageFace("",0,0,2,7)
  ShowMessage("You obtained a \\ii[382]!")
  EndEventProcessing()
  0()
 EndIf()
 If(1,11,0,5,0)
  ShowMessageFace("kinoko_fc1",0,0,2,8)
  ShowMessage("\\n<Widow>I discovered a mysterious seed...")
  355("interrupt_skill(3299)")
  EndEventProcessing()
  0()
 EndIf()
 0()
EndIf()
If(1,100,0,192,0)
 If(1,11,0,1,0)
  ShowMessageFace("nobisutam_fc1",0,0,2,9)
  ShowMessage("\\n<Novy>Creep creep...")
  ShowMessageFace("",0,0,2,10)
  ShowMessage("Novy is creeping around!\n...But nothing happened.")
  EndEventProcessing()
  0()
 EndIf()
 If(1,11,0,2,0)
  ShowMessageFace("nobisutam_fc1",0,0,2,11)
  ShowMessage("\\n<Novy>Ei, Ei...")
  355("interrupt_skill(3307)")
  EndEventProcessing()
  0()
 EndIf()
 If(1,11,0,3,0)
  ShowMessageFace("nobisutam_fc1",1,0,2,12)
  ShowMessage("\\n<Novy>............")
  313(0,191,0,11)
  ShowMessageFace("",0,0,2,13)
  ShowMessage("...Novy is dozing off...")
  EndEventProcessing()
  0()
 EndIf()
 If(1,11,0,4,0)
  ShowMessageFace("nobisutam_fc1",0,0,2,14)
  ShowMessage("\\n<Novy>...Give!")
  ShowMessageFace("",0,0,2,15)
  ShowMessage("Novy picked up a fruit!")
  250(bytes(0x04,0x08,0x6f,0x3a,0x0c,0x52,0x50,0x47,0x3a,0x3a,0x53,0x45,0x08,0x3a,0x0a,0x40,0x6e,0x61,0x6d,0x65,0x49,0x22,0x0a,0x49,0x74,0x65,0x6d,0x31,0x06,0x3a,0x06,0x45,0x54,0x3a,0x0b,0x40,0x70,0x69,0x74,0x63,0x68,0x69,0x69,0x3a,0x0c,0x40,0x76,0x6f,0x6c,0x75,0x6d,0x65,0x69,0x55))
  ChangeInventory_Item(301,0,0,1)
  ShowMessageFace("",0,0,2,16)
  ShowMessage("You obtain an \\ii[301]!")
  EndEventProcessing()
  0()
 EndIf()
 If(1,11,0,5,0)
  ShowMessageFace("nobisutam_fc1",0,0,2,17)
  ShowMessage("\\n<Novy>...Give!")
  ShowMessageFace("",0,0,2,18)
  ShowMessage("Novy picked up a fruit!")
  250(bytes(0x04,0x08,0x6f,0x3a,0x0c,0x52,0x50,0x47,0x3a,0x3a,0x53,0x45,0x08,0x3a,0x0a,0x40,0x6e,0x61,0x6d,0x65,0x49,0x22,0x0a,0x49,0x74,0x65,0x6d,0x31,0x06,0x3a,0x06,0x45,0x54,0x3a,0x0b,0x40,0x70,0x69,0x74,0x63,0x68,0x69,0x69,0x3a,0x0c,0x40,0x76,0x6f,0x6c,0x75,0x6d,0x65,0x69,0x55))
  ChangeInventory_Item(302,0,0,1)
  ShowMessageFace("",0,0,2,19)
  ShowMessage("You obtain a \\ii[302]!")
  EndEventProcessing()
  0()
 EndIf()
 0()
EndIf()
If(1,100,0,193,0)
 If(1,11,0,1,0)
  ShowMessageFace("u_scylla_fc1",2,0,2,20)
  ShowMessage("\\n<Frill>Hey, don't fight!")
  ShowMessageFace("",0,0,2,21)
  ShowMessage("Frill's wolf heads are arguing!")
  EndEventProcessing()
  0()
 EndIf()
 If(1,11,0,2,0)
  ShowMessageFace("u_scylla_fc1",0,0,2,22)
  ShowMessage("\\n<Frill>It's okay, I'm feeding them.")
  ShowMessageFace("",0,0,2,23)
  ShowMessage("Frill is giving food to her wolves!")
  EndEventProcessing()
  0()
 EndIf()
 If(1,11,0,3,0)
  ShowMessageFace("u_scylla_fc1",0,0,2,24)
  ShowMessage("\\n<Frill>My tentacles shall rampage!")
  355("interrupt_skill(2776)")
  EndEventProcessing()
  0()
 EndIf()
 If(1,11,0,4,0)
  ShowMessageFace("u_scylla_fc1",0,0,2,25)
  ShowMessage("\\n<Frill>My wolves caught something!")
  ShowMessageFace("",0,0,2,26)
  ShowMessage("Frill's wolves found some meat!")
  250(bytes(0x04,0x08,0x6f,0x3a,0x0c,0x52,0x50,0x47,0x3a,0x3a,0x53,0x45,0x08,0x3a,0x0a,0x40,0x6e,0x61,0x6d,0x65,0x49,0x22,0x0a,0x49,0x74,0x65,0x6d,0x31,0x06,0x3a,0x06,0x45,0x54,0x3a,0x0b,0x40,0x70,0x69,0x74,0x63,0x68,0x69,0x69,0x3a,0x0c,0x40,0x76,0x6f,0x6c,0x75,0x6d,0x65,0x69,0x55))
  ChangeInventory_Item(329,0,0,1)
  ShowMessageFace("",0,0,2,27)
  ShowMessage("You obtain some \\ii[329]!")
  EndEventProcessing()
  0()
 EndIf()
 If(1,11,0,5,0)
  ShowMessageFace("u_scylla_fc1",2,0,2,28)
  ShowMessage("\\n<Frill>Hey, don't run wild without my permission!")
  355("interrupt_skill(2687)")
  EndEventProcessing()
  0()
 EndIf()
 0()
EndIf()
If(1,100,0,194,0)
 If(1,11,0,1,0)
  ShowMessageFace("husuma_fc1",0,0,2,29)
  ShowMessage("\\n<Urara>*floating*...")
  ShowMessageFace("",0,0,2,30)
  ShowMessage("Urara is floating around aimlessly...")
  EndEventProcessing()
  0()
 EndIf()
 If(1,11,0,2,0)
  ShowMessageFace("husuma_fc1",0,0,2,31)
  ShowMessage("\\n<Urara>Sticky sticky!")
  355("interrupt_skill(2645)")
  EndEventProcessing()
  0()
 EndIf()
 If(1,11,0,3,0)
  ShowMessageFace("husuma_fc1",2,0,2,32)
  ShowMessage("\\n<Urara>Ah...I let out too much digestive juice...")
  313(0,194,0,21)
  ShowMessageFace("",0,0,2,33)
  ShowMessage("Urara's digestive juices are dissolving her body...\nUrara is being digested!")
  EndEventProcessing()
  0()
 EndIf()
 If(1,11,0,4,0)
  ShowMessageFace("husuma_fc1",0,0,2,34)
  ShowMessage("\\n<Urara>I'll give this to you!")
  ShowMessageFace("",0,0,2,35)
  ShowMessage("Urara presents a gift!")
  250(bytes(0x04,0x08,0x6f,0x3a,0x0c,0x52,0x50,0x47,0x3a,0x3a,0x53,0x45,0x08,0x3a,0x0a,0x40,0x6e,0x61,0x6d,0x65,0x49,0x22,0x0a,0x49,0x74,0x65,0x6d,0x31,0x06,0x3a,0x06,0x45,0x54,0x3a,0x0b,0x40,0x70,0x69,0x74,0x63,0x68,0x69,0x69,0x3a,0x0c,0x40,0x76,0x6f,0x6c,0x75,0x6d,0x65,0x69,0x55))
  ChangeInventory_Item(322,0,0,1)
  ShowMessageFace("",0,0,2,36)
  ShowMessage("You obtain a \\ii[322]!")
  EndEventProcessing()
  0()
 EndIf()
 If(1,11,0,5,0)
  ShowMessageFace("husuma_fc1",0,0,2,37)
  ShowMessage("\\n<Urara>Yooo, let's do it!")
  355("interrupt_skill(3294)")
  EndEventProcessing()
  0()
 EndIf()
 0()
EndIf()
If(1,100,0,195,0)
 If(1,11,0,1,0)
  ShowMessageFace("mermaid_fc1",3,0,2,38)
  ShowMessage("\\n<Maine>Be fascinated by the mermaid's song. ♪")
  355("interrupt_skill(2080)")
  EndEventProcessing()
  0()
 EndIf()
 If(1,11,0,2,0)
  ShowMessageFace("mermaid_fc1",3,0,2,39)
  ShowMessage("\\n<Maine>Sleeeep♪ Sleeeep♪")
  355("interrupt_skill(2105)")
  EndEventProcessing()
  0()
 EndIf()
 If(1,11,0,3,0)
  ShowMessageFace("mermaid_fc1",3,0,2,40)
  ShowMessage("\\n<Maine>Do your best, everyone! ♪")
  355("interrupt_skill(2089)")
  EndEventProcessing()
  0()
 EndIf()
 If(1,11,0,4,0)
  ShowMessageFace("mermaid_fc1",3,0,2,41)
  ShowMessage("\\n<Maine>I caught this, please feel free to have it. ♪")
  ShowMessageFace("",0,0,2,42)
  ShowMessage("Maine presents a gift!")
  250(bytes(0x04,0x08,0x6f,0x3a,0x0c,0x52,0x50,0x47,0x3a,0x3a,0x53,0x45,0x08,0x3a,0x0a,0x40,0x6e,0x61,0x6d,0x65,0x49,0x22,0x0a,0x49,0x74,0x65,0x6d,0x31,0x06,0x3a,0x06,0x45,0x54,0x3a,0x0b,0x40,0x70,0x69,0x74,0x63,0x68,0x69,0x69,0x3a,0x0c,0x40,0x76,0x6f,0x6c,0x75,0x6d,0x65,0x69,0x55))
  ChangeInventory_Item(322,0,0,1)
  ShowMessageFace("",0,0,2,43)
  ShowMessage("You obtain a \\ii[322]!")
  EndEventProcessing()
  0()
 EndIf()
 If(1,11,0,5,0)
  ShowMessageFace("mermaid_fc1",3,0,2,44)
  ShowMessage("\\n<Maine>Ufufufu...♪")
  355("interrupt_skill(3296)")
  EndEventProcessing()
  0()
 EndIf()
 0()
EndIf()
If(1,100,0,196,0)
 If(1,11,0,1,0)
  ShowMessageFace("s_mermaid_fc1",0,0,2,45)
  ShowMessage("\\n<Mink>Coin toss... Eii!")
  355("interrupt_skill(3316)")
  EndEventProcessing()
  0()
 EndIf()
 If(1,11,0,2,0)
  ShowMessageFace("s_mermaid_fc1",0,0,2,46)
  ShowMessage("\\n<Mink>Business is thriving♪ Thank you for your patronage♪")
  313(0,191,0,156)
  ShowMessageFace("",0,0,2,47)
  ShowMessage("Mink sings a song of thriving business!\nGold earned after this battle has increased!")
  EndEventProcessing()
  0()
 EndIf()
 If(1,11,0,3,0)
  ShowMessageFace("s_mermaid_fc1",2,0,2,48)
  ShowMessage("\\n<Mink>I'm a lil' tired from work.\nLet me get some sleep.")
  313(0,196,0,11)
  ShowMessageFace("",0,0,2,49)
  ShowMessage("Mink fell asleep...")
  EndEventProcessing()
  0()
 EndIf()
 If(1,11,0,4,0)
  ShowMessageFace("s_mermaid_fc1",0,0,2,50)
  ShowMessage("\\n<Mink>Here's a gift.\nEat it while it's warm.")
  ShowMessageFace("",0,0,2,51)
  ShowMessage("Mink presents a gift!")
  250(bytes(0x04,0x08,0x6f,0x3a,0x0c,0x52,0x50,0x47,0x3a,0x3a,0x53,0x45,0x08,0x3a,0x0a,0x40,0x6e,0x61,0x6d,0x65,0x49,0x22,0x0a,0x49,0x74,0x65,0x6d,0x31,0x06,0x3a,0x06,0x45,0x54,0x3a,0x0b,0x40,0x70,0x69,0x74,0x63,0x68,0x69,0x69,0x3a,0x0c,0x40,0x76,0x6f,0x6c,0x75,0x6d,0x65,0x69,0x55))
  ChangeInventory_Item(405,0,0,1)
  ShowMessageFace("",0,0,2,52)
  ShowMessage("You obtain a \\ii[405]!")
  EndEventProcessing()
  0()
 EndIf()
 If(1,11,0,5,0)
  ShowMessageFace("s_mermaid_fc1",0,0,2,53)
  ShowMessage("\\n<Mink>Here's a gift.\nIt was from my partner's failed business...")
  ShowMessageFace("",0,0,2,54)
  ShowMessage("Mink presents a gift!")
  250(bytes(0x04,0x08,0x6f,0x3a,0x0c,0x52,0x50,0x47,0x3a,0x3a,0x53,0x45,0x08,0x3a,0x0a,0x40,0x6e,0x61,0x6d,0x65,0x49,0x22,0x0a,0x49,0x74,0x65,0x6d,0x31,0x06,0x3a,0x06,0x45,0x54,0x3a,0x0b,0x40,0x70,0x69,0x74,0x63,0x68,0x69,0x69,0x3a,0x0c,0x40,0x76,0x6f,0x6c,0x75,0x6d,0x65,0x69,0x55))
  ChangeInventory_Item(437,0,0,1)
  ShowMessageFace("",0,0,2,55)
  ShowMessage("You obtain a \\ii[437]!")
  EndEventProcessing()
  0()
 EndIf()
 0()
EndIf()
If(1,100,0,197,0)
 If(1,11,0,1,0)
  ShowMessageFace("k_mermaid_fc1",0,0,2,56)
  ShowMessage("\\n<Lolitta>Firing artillery!")
  ShowMessageFace("",0,0,2,57)
  ShowMessage("Lolitta issued an order!\n...But nothing happened.")
  EndEventProcessing()
  0()
 EndIf()
 If(1,11,0,2,0)
  ShowMessageFace("k_mermaid_fc1",0,0,2,58)
  ShowMessage("\\n<Lolitta>Fight! One shot!")
  313(0,197,0,53)
  ShowMessageFace("",0,0,2,59)
  ShowMessage("Lolitta is fired up!\nLolitta's critical hit rate has increased!")
  EndEventProcessing()
  0()
 EndIf()
 If(1,11,0,3,0)
  ShowMessageFace("k_mermaid_fc1",0,0,2,60)
  ShowMessage("\\n<Lolitta>Yooooo! Let's run wiiild!")
  313(0,197,0,30)
  ShowMessageFace("",0,0,2,61)
  ShowMessage("Lolitta has gone berserk!")
  EndEventProcessing()
  0()
 EndIf()
 If(1,11,0,4,0)
  ShowMessageFace("k_mermaid_fc1",0,0,2,62)
  ShowMessage("\\n<Lolitta>I'll take that!")
  355("interrupt_skill(1820)")
  EndEventProcessing()
  0()
 EndIf()
 If(1,11,0,5,0)
  ShowMessageFace("k_mermaid_fc1",0,0,2,63)
  ShowMessage("\\n<Lolitta>Let's go! Yayayayayaaa!")
  355("interrupt_skill(3292)")
  EndEventProcessing()
  0()
 EndIf()
 0()
EndIf()
If(1,100,0,198,0)
 If(1,11,0,1,0)
  ShowMessageFace("ittanmomen_fc4",0,0,2,64)
  ShowMessage("\\n<Momen>Fluttering♪")
  ShowMessageFace("",0,0,2,65)
  ShowMessage("The Ittan-Momen are fluttering around...")
  EndEventProcessing()
  0()
 EndIf()
 If(1,11,0,2,0)
  ShowMessageFace("ittanmomen_fc4",2,0,2,66)
  ShowMessage("\\n<Momen>Wait a minute! You ate my apple didn't you!")
  ShowMessageFace("",0,0,2,67)
  ShowMessage("The Ittan-Momen are arguing with each other...")
  EndEventProcessing()
  0()
 EndIf()
 If(1,11,0,3,0)
  ShowMessageFace("ittanmomen_fc4",0,0,2,68)
  ShowMessage("\\n<Momen>We'll flutter a lot today!")
  313(0,198,0,46)
  ShowMessageFace("",0,0,2,69)
  ShowMessage("Momen's evasion has increased!")
  EndEventProcessing()
  0()
 EndIf()
 If(1,11,0,4,0)
  ShowMessageFace("ittanmomen_fc4",2,0,2,70)
  ShowMessage("\\n<Momen>Our bodies got torn a little...\nIt's precious so you can have it.")
  250(bytes(0x04,0x08,0x6f,0x3a,0x0c,0x52,0x50,0x47,0x3a,0x3a,0x53,0x45,0x08,0x3a,0x0a,0x40,0x6e,0x61,0x6d,0x65,0x49,0x22,0x0a,0x49,0x74,0x65,0x6d,0x31,0x06,0x3a,0x06,0x45,0x54,0x3a,0x0b,0x40,0x70,0x69,0x74,0x63,0x68,0x69,0x69,0x3a,0x0c,0x40,0x76,0x6f,0x6c,0x75,0x6d,0x65,0x69,0x55))
  ChangeInventory_Item(203,0,0,1)
  ShowMessageFace("",0,0,2,71)
  ShowMessage("You obtain a \\ii[203]!")
  EndEventProcessing()
  0()
 EndIf()
 If(1,11,0,5,0)
  ShowMessageFace("ittanmomen_fc4",0,0,2,72)
  ShowMessage("\\n<Momen>Do your best♪ Do your best♪")
  355("interrupt_skill(3300)")
  EndEventProcessing()
  0()
 EndIf()
 0()
EndIf()
If(1,100,0,199,0)
 If(1,11,0,1,0)
  ShowMessageFace("dagon_fc1",0,0,2,73)
  ShowMessage("\\n<Seraphy>Drift drift...")
  ShowMessageFace("",0,0,2,74)
  ShowMessage("Seraphy is drifting around aimlessly...")
  EndEventProcessing()
  0()
 EndIf()
 If(1,11,0,2,0)
  ShowMessageFace("dagon_fc1",0,0,2,75)
  ShowMessage("\\n<Seraphy>Float float...")
  ShowMessageFace("",0,0,2,76)
  ShowMessage("Seraphy is floating around aimlessly...")
  EndEventProcessing()
  0()
 EndIf()
 If(1,11,0,3,0)
  ShowMessageFace("dagon_fc1",0,0,2,77)
  ShowMessage("\\n<Seraphy>I'm a mermaid! ♪")
  ShowMessageFace("",0,0,2,78)
  ShowMessage("Seraphy is pretending to be a mermaid!\nBut no one is looking at her...")
  EndEventProcessing()
  0()
 EndIf()
 If(1,11,0,4,0)
  ShowMessageFace("dagon_fc1",0,0,2,79)
  ShowMessage("\\n<Seraphy>This kid is my friend.\nPlease show him some affection. ♪")
  250(bytes(0x04,0x08,0x6f,0x3a,0x0c,0x52,0x50,0x47,0x3a,0x3a,0x53,0x45,0x08,0x3a,0x0a,0x40,0x6e,0x61,0x6d,0x65,0x49,0x22,0x0a,0x49,0x74,0x65,0x6d,0x31,0x06,0x3a,0x06,0x45,0x54,0x3a,0x0b,0x40,0x70,0x69,0x74,0x63,0x68,0x69,0x69,0x3a,0x0c,0x40,0x76,0x6f,0x6c,0x75,0x6d,0x65,0x69,0x55))
  ChangeInventory_Item(324,0,0,1)
  ShowMessageFace("",0,0,2,80)
  ShowMessage("You obtain an \\ii[324]!")
  EndEventProcessing()
  0()
 EndIf()
 If(1,11,0,5,0)
  ShowMessageFace("dagon_fc1",2,0,2,81)
  ShowMessage("\\n<Seraphy>Wawawa, is this static electricity?!")
  355("interrupt_skill(3308)")
  EndEventProcessing()
  0()
 EndIf()
 0()
EndIf()
If(1,100,0,200,0)
 If(1,11,0,1,0)
  ShowMessageFace("hitodama_fc1",0,0,2,82)
  ShowMessage("\\n<Fear>Let's play with fire. ♪")
  355("interrupt_skill(2954)")
  EndEventProcessing()
  0()
 EndIf()
 If(1,11,0,2,0)
  ShowMessageFace("hitodama_fc1",1,0,2,83)
  ShowMessage("\\n<Fear>Blaaazing♪ Souuul♪")
  ShowMessageFace("",0,0,2,84)
  ShowMessage("Fear is singing her theme song...")
  EndEventProcessing()
  0()
 EndIf()
 If(1,11,0,3,0)
  ShowMessageFace("hitodama_fc1",0,0,2,85)
  ShowMessage("\\n<Fear>I see, that's tough isn't it...")
  ShowMessageFace("ghost2_fc1",0,0,2,86)
  ShowMessage("\\n<Spirit Girl>Indeed, it's difficult being dead...")
  ShowMessageFace("",0,0,2,87)
  ShowMessage("Fear is having a friendly chat with a wandering ghost...")
  EndEventProcessing()
  0()
 EndIf()
 If(1,11,0,4,0)
  ShowMessageFace("hitodama_fc1",0,0,2,88)
  ShowMessage("\\n<Fear>The lantern festival is still around the corner, so I'll give you this. ♪")
  250(bytes(0x04,0x08,0x6f,0x3a,0x0c,0x52,0x50,0x47,0x3a,0x3a,0x53,0x45,0x08,0x3a,0x0a,0x40,0x6e,0x61,0x6d,0x65,0x49,0x22,0x0a,0x49,0x74,0x65,0x6d,0x31,0x06,0x3a,0x06,0x45,0x54,0x3a,0x0b,0x40,0x70,0x69,0x74,0x63,0x68,0x69,0x69,0x3a,0x0c,0x40,0x76,0x6f,0x6c,0x75,0x6d,0x65,0x69,0x55))
  ChangeInventory_Item(311,0,0,1)
  ShowMessageFace("",0,0,2,89)
  ShowMessage("You obtain an \\ii[311]!")
  EndEventProcessing()
  0()
 EndIf()
 If(1,11,0,5,0)
  ShowMessageFace("hitodama_fc1",1,0,2,90)
  ShowMessage("\\n<Fear>It's fun to play with fire. ♪")
  355("interrupt_skill(3295)")
  EndEventProcessing()
  0()
 EndIf()
 0()
EndIf()
0()
