﻿// EVENT 4561
Name "Nefertiti Lamias 1"

If(0,25,1)
 221()
 PictureClear(5)
 PictureClear(6)
 ShowMessageFace("",0,0,2,0)
 ShowMessage("......")
 242(2)
 Wait(120)
 241(bytes(0x04,0x08,0x6f,0x3a,0x0d,0x52,0x50,0x47,0x3a,0x3a,0x42,0x47,0x4d,0x08,0x3a,0x0a,0x40,0x6e,0x61,0x6d,0x65,0x49,0x22,0x0c,0x63,0x61,0x73,0x74,0x6c,0x65,0x36,0x06,0x3a,0x06,0x45,0x54,0x3a,0x0c,0x40,0x76,0x6f,0x6c,0x75,0x6d,0x65,0x69,0x69,0x3a,0x0b,0x40,0x70,0x69,0x74,0x63,0x68,0x69,0x69))
 EndEventProcessing()
 0()
EndIf()
PictureDisplay(5,"80_lamias_st03",0,0,0,0,100,100,255,0)
ShowMessageFace("lamias_fc1",4,0,2,1)
ShowMessage("\\n<Oldest Lamia>Ufufu, you want to mate with me...?")
ShowMessageFace("",0,0,2,2)
ShowMessage("\\n<Luka>P-please...")
ShowMessageFace("lamias_fc1",4,0,2,3)
ShowMessage("\\n<Oldest Lamia>All right, I'll keep you company.\nHey everyone, will you help me...?")
241(bytes(0x04,0x08,0x6f,0x3a,0x0d,0x52,0x50,0x47,0x3a,0x3a,0x42,0x47,0x4d,0x08,0x3a,0x0a,0x40,0x6e,0x61,0x6d,0x65,0x49,0x22,0x09,0x65,0x72,0x6f,0x31,0x06,0x3a,0x06,0x45,0x54,0x3a,0x0c,0x40,0x76,0x6f,0x6c,0x75,0x6d,0x65,0x69,0x69,0x3a,0x0b,0x40,0x70,0x69,0x74,0x63,0x68,0x69,0x69))
250(bytes(0x04,0x08,0x6f,0x3a,0x0c,0x52,0x50,0x47,0x3a,0x3a,0x53,0x45,0x08,0x3a,0x0a,0x40,0x6e,0x61,0x6d,0x65,0x49,0x22,0x16,0x6d,0x6f,0x6e,0x5f,0x65,0x72,0x6f,0x5f,0x73,0x69,0x6d,0x65,0x74,0x75,0x6b,0x65,0x31,0x06,0x3a,0x06,0x45,0x54,0x3a,0x0b,0x40,0x70,0x69,0x74,0x63,0x68,0x69,0x69,0x3a,0x0c,0x40,0x76,0x6f,0x6c,0x75,0x6d,0x65,0x69,0x69))
PictureDisplay(5,"ev_lamias_ha1",0,0,0,0,100,100,255,0)
ShowMessageFace("",0,0,2,4)
ShowMessage("All four of them tangle their bodies around mine.\nWrapped in their tails, I can't move at all.")
ShowMessageFace("",0,0,2,5)
ShowMessage("\\n<Luka>Aaaaah...")
ShowMessageFace("",0,0,2,6)
ShowMessage("The four sisters wrap their soft, warm bodies around me.")
ShowMessageFace("",0,0,2,7)
ShowMessage("With their heavy serpentine weight on me, the feeling of being wound up only intensifies the excitement of being their prey.")
ShowMessageFace("",0,0,2,8)
ShowMessage("One of the lamias presses my penis against her lower body.\nShe presses my tip against her wet entrance.")
ShowMessageFace("lamias_fc1",4,0,2,9)
ShowMessage("\\n<Oldest Lamia>Fufu... I'll violate you, as you desire.\nI'll let my little sisters watch your humiliation...")
245(bytes(0x04,0x08,0x6f,0x3a,0x0d,0x52,0x50,0x47,0x3a,0x3a,0x42,0x47,0x53,0x08,0x3a,0x0a,0x40,0x6e,0x61,0x6d,0x65,0x49,0x22,0x1e,0x6d,0x6f,0x6e,0x5f,0x68,0x73,0x65,0x61,0x6e,0x30,0x32,0x5f,0x69,0x6e,0x6e,0x65,0x72,0x77,0x6f,0x72,0x6b,0x73,0x5f,0x61,0x32,0x06,0x3a,0x06,0x45,0x54,0x3a,0x0c,0x40,0x76,0x6f,0x6c,0x75,0x6d,0x65,0x69,0x55,0x3a,0x0b,0x40,0x70,0x69,0x74,0x63,0x68,0x69,0x69))
PictureDisplay(5,"ev_lamias_ha2",0,0,0,0,100,100,255,0)
ShowMessageFace("",0,0,2,10)
ShowMessage("In the next moment, she takes me inside.\nMy penis sinks into her wet vagina.")
ShowMessageFace("",0,0,2,11)
ShowMessage("\\n<Luka>Ah, aaaaaah!!")
ShowMessageFace("",0,0,2,12)
ShowMessage("I feel the wavy walls of her hot, wet vagina around my penis. As my glans pushes into her wavy flesh, I feel everything.")
ShowMessageFace("",0,0,2,13)
ShowMessage("The deeper I go, the more it attacks me.\nI'm caught completely by surprise as I'm brought deep into her.")
ShowMessageFace("",0,0,2,14)
ShowMessage("\\n<Luka>....Ah, coming...! Aaaaah!!")
RunCommonEvent(104)
PictureDisplay(5,"ev_lamias_ha3",0,0,0,0,100,100,255,0)
RunCommonEvent(105)
246(1)
ShowMessageFace("lamias_fc1",4,0,2,15)
ShowMessage("\\n<Oldest Lamia>Ara...?")
ShowMessageFace("",0,0,2,16)
ShowMessage("A humiliating premature ejaculation...\nThe lamia looks stunned as I come inside her.")
ShowMessageFace("",0,0,2,17)
ShowMessage("Then...the lamia smirks at me.")
ShowMessageFace("lamias_fc1",4,0,2,18)
ShowMessage("\\n<Oldest Lamia>...Did you already come?\nHow miserable...")
ShowMessageFace("lamias_fc1",5,0,2,19)
ShowMessage("\\n<Second Oldest Lamia>Ahaha, did our big sister's pussy finish him off in an instant? It must have felt way too good for him... Ahahaha.")
ShowMessageFace("lamias_fc1",6,0,2,20)
ShowMessage("\\n<Third Oldest Lamia>How pathetic. ♪\nHey, you, that was way too fast. ♪")
ShowMessageFace("lamias_fc1",7,0,2,21)
ShowMessage("\\n<Youngest Lamia>He already leaked...?\nTeehee...")
ShowMessageFace("",0,0,2,22)
ShowMessage("The lamias around me all start to laugh.\nI can't do anything but tremble in misery as they humiliate me.")
ShowMessageFace("lamias_fc1",4,0,2,23)
ShowMessage("\\n<Oldest Lamia>I'm sorry for finishing you off so fast...\nI mean, I didn't think you would be so weak...\nFufufu.")
ShowMessageFace("",0,0,2,24)
ShowMessage("With a triumphant look on her face, the oldest lamia laughs. All the while, my cock is still stuck inside of her.")
ShowMessageFace("lamias_fc1",4,0,2,25)
ShowMessage("\\n<Oldest Lamia>There's no helping it I guess... Let's try again... Horahorahora...")
245(bytes(0x04,0x08,0x6f,0x3a,0x0d,0x52,0x50,0x47,0x3a,0x3a,0x42,0x47,0x53,0x08,0x3a,0x0a,0x40,0x6e,0x61,0x6d,0x65,0x49,0x22,0x1e,0x6d,0x6f,0x6e,0x5f,0x68,0x73,0x65,0x61,0x6e,0x30,0x32,0x5f,0x69,0x6e,0x6e,0x65,0x72,0x77,0x6f,0x72,0x6b,0x73,0x5f,0x61,0x32,0x06,0x3a,0x06,0x45,0x54,0x3a,0x0c,0x40,0x76,0x6f,0x6c,0x75,0x6d,0x65,0x69,0x55,0x3a,0x0b,0x40,0x70,0x69,0x74,0x63,0x68,0x69,0x69))
ShowMessageFace("",0,0,2,26)
ShowMessage("\\n<Luka>Unnngh... It's moving inside...!")
ShowMessageFace("",0,0,2,27)
ShowMessage("Her narrow vagina squeezes down on me again.\nGetting even hotter in her, the lamia's wet vagina feels like heaven.")
ShowMessageFace("",0,0,2,28)
ShowMessage("At the same time, the lamia starts to move her waist.\nThe movements overwhelm my body as her whole body pleasures me.")
ShowMessageFace("",0,0,2,29)
ShowMessage("\\n<Luka>Aiyee...! Aaaah...!!")
ShowMessageFace("",0,0,2,30)
ShowMessage("Her wavy walls catch on my glans with every movement.\nHer incredible vagina, that just made me come in seconds, feels too good...")
ShowMessageFace("",0,0,2,31)
ShowMessage("The wet noise of our mating fills the surrounding area with every movement. But I'm too enraptured by her movements to care.")
ShowMessageFace("",0,0,2,32)
ShowMessage("\\n<Luka>Huaaa... That feels good...")
ShowMessageFace("lamias_fc1",4,0,2,33)
ShowMessage("\\n<Oldest Lamia>Fufu... Are you already a prisoner of my pussy?\nA truly pathetic hero, aren't you...")
ShowMessageFace("lamias_fc1",5,0,2,34)
ShowMessage("\\n<Second Oldest Lamia>Does our big sister's pussy really feel that good...?")
ShowMessageFace("lamias_fc1",6,0,2,35)
ShowMessage("\\n<Third Oldest Lamia>Aren't you happy she's raping you? ♪\nAhaha...♪")
ShowMessageFace("",0,0,2,36)
ShowMessage("The lamias ridicule me as they press their soft bodies against me. Trembling under them, I have no choice but to accept this rape.")
ShowMessageFace("",0,0,2,37)
ShowMessage("\\n<Luka>Unnngh...")
ShowMessageFace("lamias_fc1",4,0,2,38)
ShowMessage("\\n<Oldest Lamia>It's about time for me to make you come.")
ShowMessageFace("",0,0,2,39)
ShowMessage("\\n<Luka>Ah... Aieee!!")
ShowMessageFace("",0,0,2,40)
ShowMessage("The oldest lamia's vagina suddenly contracts.\nStill moving her hips, the stimulation from the ridges inside of her dig into me as the stimulation becomes too much to endure.")
ShowMessageFace("",0,0,2,41)
ShowMessage("\\n<Luka>Ah, aaah...")
ShowMessageFace("lamias_fc1",4,0,2,42)
ShowMessage("\\n<Oldest Lamia>You can't take it when I do this, right?\nNow, shoot out even more inside me!")
ShowMessageFace("",0,0,2,43)
ShowMessage("Forced in and out of her, I'm quickly brought to the edge.\nThe texture of her vagina rubs me with every movement.")
ShowMessageFace("",0,0,2,44)
ShowMessage("Listening to the lewd sound of our mating, I feel my climax approaching. A sense of numbness fills my waist.")
ShowMessageFace("",0,0,2,45)
ShowMessage("\\n<Luka>Ah...! S-so good...\nFaaaaa!!")
RunCommonEvent(104)
PictureDisplay(5,"ev_lamias_ha4",0,0,0,0,100,100,255,0)
RunCommonEvent(105)
ShowMessageFace("",0,0,2,46)
ShowMessage("My semen spurts into her.\nAs my white stuff flows into the lamia, she smiles.")
246(1)
ShowMessageFace("lamias_fc1",4,0,2,47)
ShowMessage("\\n<Oldest Lamia>Fufu, I had fun.\nNext time, why not let my sisters have a turn...?")
ShowMessageFace("",0,0,2,48)
ShowMessage("\\n<Luka>......")
ShowMessageFace("",0,0,2,49)
ShowMessage("I'm too weak to do anything else.\nThe other sisters around me giggle as they stare at me.")
ShowMessageFace("",0,0,2,50)
ShowMessage("These girls are looking at me as if I'm prey...\nI may have no choice but to feed them.")
221()
PictureClear(5)
ShowMessageFace("",0,0,2,51)
ShowMessage("......")
242(2)
Wait(120)
241(bytes(0x04,0x08,0x6f,0x3a,0x0d,0x52,0x50,0x47,0x3a,0x3a,0x42,0x47,0x4d,0x08,0x3a,0x0a,0x40,0x6e,0x61,0x6d,0x65,0x49,0x22,0x0c,0x63,0x61,0x73,0x74,0x6c,0x65,0x36,0x06,0x3a,0x06,0x45,0x54,0x3a,0x0c,0x40,0x76,0x6f,0x6c,0x75,0x6d,0x65,0x69,0x69,0x3a,0x0b,0x40,0x70,0x69,0x74,0x63,0x68,0x69,0x69))
0()
