﻿// EVENT 4632
Name "Naccubus 2"

If(0,25,1)
 221()
 PictureClear(5)
 PictureClear(6)
 ShowMessageFace("",0,0,2,0)
 ShowMessage("......")
 242(2)
 Wait(120)
 241(bytes(0x04,0x08,0x6f,0x3a,0x0d,0x52,0x50,0x47,0x3a,0x3a,0x42,0x47,0x4d,0x08,0x3a,0x0a,0x40,0x6e,0x61,0x6d,0x65,0x49,0x22,0x0c,0x63,0x61,0x73,0x74,0x6c,0x65,0x36,0x06,0x3a,0x06,0x45,0x54,0x3a,0x0c,0x40,0x76,0x6f,0x6c,0x75,0x6d,0x65,0x69,0x69,0x3a,0x0b,0x40,0x70,0x69,0x74,0x63,0x68,0x69,0x69))
 EndEventProcessing()
 0()
EndIf()
PictureDisplay(5,"80_narcubus_st11",0,0,0,0,100,100,255,0)
ShowMessageFace("narcubus_fc1",0,0,2,1)
ShowMessage("\\n<Nabisu>Arara? It looks like you've accumulate a lot of semen in there. Shall I suck it out with my tail?")
ShowMessageFace("narcubus_fc1",0,0,2,2)
ShowMessage("\\n<Nabisu>If you put your penis into my tail...\nIt will feel so good, your balls will be dry in no time.")
ShowMessageFace("",0,0,2,3)
ShowMessage("\\n<Luka>P-please...")
ShowMessageFace("narcubus_fc1",0,0,2,4)
ShowMessage("\\n<Nabisu>All right, then please take out your penis. ♪")
PictureDisplay(5,"ev_narcubus_hc1",0,0,0,0,100,100,0,0)
PictureMove(5,null,0,0,0,0,100,100,255,0,30,true)
241(bytes(0x04,0x08,0x6f,0x3a,0x0d,0x52,0x50,0x47,0x3a,0x3a,0x42,0x47,0x4d,0x08,0x3a,0x0a,0x40,0x6e,0x61,0x6d,0x65,0x49,0x22,0x09,0x65,0x72,0x6f,0x31,0x06,0x3a,0x06,0x45,0x54,0x3a,0x0c,0x40,0x76,0x6f,0x6c,0x75,0x6d,0x65,0x69,0x69,0x3a,0x0b,0x40,0x70,0x69,0x74,0x63,0x68,0x69,0x69))
ShowMessageFace("",0,0,2,5)
ShowMessage("After stripping me naked, Nabisu clings to me.\nThe tip of her tail rubs against my already erect penis.")
ShowMessageFace("narcubus_fc1",0,0,2,6)
ShowMessage("\\n<Nabisu>Fufufu, it's already so hard.\nI'll be taking it with my tail...♪")
245(bytes(0x04,0x08,0x6f,0x3a,0x0d,0x52,0x50,0x47,0x3a,0x3a,0x42,0x47,0x53,0x08,0x3a,0x0a,0x40,0x6e,0x61,0x6d,0x65,0x49,0x22,0x1e,0x6d,0x6f,0x6e,0x5f,0x68,0x73,0x65,0x61,0x6e,0x30,0x39,0x5f,0x69,0x6e,0x6e,0x65,0x72,0x77,0x6f,0x72,0x6b,0x73,0x5f,0x62,0x31,0x06,0x3a,0x06,0x45,0x54,0x3a,0x0c,0x40,0x76,0x6f,0x6c,0x75,0x6d,0x65,0x69,0x55,0x3a,0x0b,0x40,0x70,0x69,0x74,0x63,0x68,0x69,0x69))
PictureDisplay(5,"ev_narcubus_hc3",0,0,0,0,100,100,255,0)
ShowMessageFace("",0,0,2,7)
ShowMessage("Nabisu's tail sucks in the tip of my penis.\nThe warm flesh inside of her feels like it's moving around me.")
ShowMessageFace("",0,0,2,8)
ShowMessage("It's like a toothless mouth is sucking on me.\nI'm overwhelmed at the intense touch.")
ShowMessageFace("",0,0,2,9)
ShowMessage("\\n<Luka>Ooooh...!")
ShowMessageFace("narcubus_fc1",0,0,2,10)
ShowMessage("\\n<Nabisu>It's only the tip, and you're already moaning like that? ♪\nNow to take it all in...")
PictureDisplay(5,"ev_narcubus_hc5",0,0,0,0,100,100,255,0)
ShowMessageFace("",0,0,2,11)
ShowMessage("With a slow progression, my penis is sucked deeper into Nabisu's tail. In a few seconds, I'm deep inside her warm tail.")
ShowMessageFace("",0,0,2,12)
ShowMessage("\\n<Luka>A-aah...! That feels so good!!")
ShowMessageFace("",0,0,2,13)
ShowMessage("Countless folds inside her tail rub against me as I'm forced inside. The wavy flesh squirms as if alive, rubbing and massaging me in her.")
ShowMessageFace("",0,0,2,14)
ShowMessage("The seductive touch of her wet flesh... There's no way I can endure this.")
ShowMessageFace("",0,0,2,15)
ShowMessage("\\n<Luka>This is too much... I'm coming already...")
ShowMessageFace("narcubus_fc1",0,0,2,16)
ShowMessage("\\n<Nabisu>Ahaha, look at that desperate face.\nI'm sucking out the semen from my patient, there's no need to hold back.")
ShowMessageFace("",0,0,2,17)
ShowMessage("Nabisu's tail sucks on my penis.\nThe soft flesh around me squeezes me tighter as she encourages me to come.")
ShowMessageFace("",0,0,2,18)
ShowMessage("Pressing and releasing, her rhythmic squeezing motions don't let me catch a breath. It's just like a toothless mouth chewing on me.")
ShowMessageFace("",0,0,2,19)
ShowMessage("\\n<Luka>Ah, hnnngh...!")
ShowMessageFace("narcubus_fc1",0,0,2,20)
ShowMessage("\\n<Nabisu>Does this feel nice?\nThen I'll make you come with this...♪")
ShowMessageFace("",0,0,2,21)
ShowMessage("The movement of her flesh gets even more intense as she forces me to come.")
ShowMessageFace("",0,0,2,22)
ShowMessage("Her textured flesh massages me, her folds rubbing against my sensitive tip.")
ShowMessageFace("",0,0,2,23)
ShowMessage("\\n<Luka>Ah, aaaah...!!")
RunCommonEvent(104)
PictureDisplay(5,"ev_narcubus_hc6",0,0,0,0,100,100,255,0)
RunCommonEvent(105)
ShowMessageFace("",0,0,2,24)
ShowMessage("Reaching my high, I come inside Nabisu's tail.\nMy semen spurts into her tail, perfectly made to squeeze men.")
ShowMessageFace("",0,0,2,25)
ShowMessage("Wrapped in her tail's flesh, it feels like I'm in heaven.\nMy body trembles in the ecstasy of release underneath Nabisu's body.")
246(2)
ShowMessageFace("narcubus_fc1",0,0,2,26)
ShowMessage("\\n<Nabisu>Good job, you came so much.\nDid it feel good...?")
ShowMessageFace("",0,0,2,27)
ShowMessage("\\n<Luka>Unnngh...")
ShowMessageFace("",0,0,2,28)
ShowMessage("Immersed in the afterglow, I'm too weak to respond.\nThe melting feeling is too much for me to even move my head to nod.")
ShowMessageFace("narcubus_fc1",0,0,2,29)
ShowMessage("\\n<Nabisu>Geez, don't let so much accumulate next time.\nOnce you accumulate more, I'll suck it out again with my tail. ♪")
ShowMessageFace("",0,0,2,30)
ShowMessage("Nabisu smiles as she looks down at me, too weak to move.")
221()
PictureClear(5)
PictureClear(6)
ShowMessageFace("",0,0,2,31)
ShowMessage("......")
242(2)
Wait(120)
241(bytes(0x04,0x08,0x6f,0x3a,0x0d,0x52,0x50,0x47,0x3a,0x3a,0x42,0x47,0x4d,0x08,0x3a,0x0a,0x40,0x6e,0x61,0x6d,0x65,0x49,0x22,0x0c,0x63,0x61,0x73,0x74,0x6c,0x65,0x36,0x06,0x3a,0x06,0x45,0x54,0x3a,0x0c,0x40,0x76,0x6f,0x6c,0x75,0x6d,0x65,0x69,0x69,0x3a,0x0b,0x40,0x70,0x69,0x74,0x63,0x68,0x69,0x69))
0()
