﻿// EVENT 0119
Name "Promestein Transformations"

241(bytes(0x04,0x08,0x6f,0x3a,0x0d,0x52,0x50,0x47,0x3a,0x3a,0x42,0x47,0x4d,0x08,0x3a,0x0a,0x40,0x6e,0x61,0x6d,0x65,0x49,0x22,0x0a,0x73,0x74,0x65,0x69,0x6e,0x06,0x3a,0x06,0x45,0x54,0x3a,0x0c,0x40,0x76,0x6f,0x6c,0x75,0x6d,0x65,0x69,0x69,0x3a,0x0b,0x40,0x70,0x69,0x74,0x63,0x68,0x69,0x69))
PictureDisplay(5,"80_stein_st32",0,0,0,0,100,100,0,0)
PictureMove(5,null,0,0,0,0,100,100,255,0,30,true)
If(0,1920,1)
 ChangeSwitch(1920,1920,0)
 ShowMessageFace("stein_fc2",1,0,2,1)
 ShowMessage("\\n<Promestein>I've further refined my Carrot Extract!")
 ShowMessageFace("stein_fc2",1,0,2,2)
 ShowMessage("\\n<Promestein>If you've reached level 10 in the Slime race, you can transform into a Beast!")
 ShowMessageFace("bunnyslime_fc1",0,0,2,3)
 ShowMessage("\\n<Bunni>Yaaay♪")
 ShowMessage("I hope I can make some new rabbit friends♪")
 DefineLabel("ループ")
 0()
EndIf()
If(0,1921,1)
 If(12,"actor_class_level_over?(167, 214, 1)")
  If(0,2141,0)
   If(0,2142,0)
    If(0,2143,0)
     If(0,2144,0)
      ChangeSwitch(1921,1921,0)
      ShowMessageFace("stein_fc2",1,0,2,4)
      ShowMessage("\\n<Promestein>By the way, lately I've been working together with Lucia on a new project. Could we perhaps make it possible for others to become fairies, also?")
      ShowMessageFace("lusia_fc1",0,0,2,5)
      ShowMessage("\\n<Lucia>Using my body, I managed to absorb the power of the elements and become a fairy, however... We want to make the same possible for other races, as well.")
      ShowMessageFace("stein_fc2",1,0,2,6)
      ShowMessage("\\n<Promestein>We've discovered that mermaids in particular have a high affinity for the elements. If we could only find one who is deeply in touch with the powers of nature...")
      ShowMessageFace("lusia_fc1",0,0,2,7)
      ShowMessage("\\n<Lucia>Indeed, perhaps one within whom the elements have already taken root... We'd be able to make rapid progress with our research on fairy transformation.")
      ShowMessageFace("namazu_fc1",2,0,2,8)
      ShowMessage("\\n<Gigi>Well then, I seem to remember I have something urgent to take care of, so...")
      ShowMessageFace("stein_fc2",2,0,2,9)
      ShowMessage("\\n<Promestein>Ah! She's getting away!")
      ShowMessage("Grab her, Lucia!")
      ShowMessageFace("lusia_fc1",1,0,2,10)
      ShowMessage("\\n<Lucia>You won't escape from my tentacles!")
      241(bytes(0x04,0x08,0x6f,0x3a,0x0d,0x52,0x50,0x47,0x3a,0x3a,0x42,0x47,0x4d,0x08,0x3a,0x0a,0x40,0x6e,0x61,0x6d,0x65,0x49,0x22,0x10,0x73,0x63,0x65,0x6e,0x65,0x5f,0x63,0x6f,0x6d,0x69,0x32,0x06,0x3a,0x06,0x45,0x54,0x3a,0x0c,0x40,0x76,0x6f,0x6c,0x75,0x6d,0x65,0x69,0x69,0x3a,0x0b,0x40,0x70,0x69,0x74,0x63,0x68,0x69,0x69))
      250(bytes(0x04,0x08,0x6f,0x3a,0x0c,0x52,0x50,0x47,0x3a,0x3a,0x53,0x45,0x08,0x3a,0x0a,0x40,0x6e,0x61,0x6d,0x65,0x49,0x22,0x16,0x6d,0x6f,0x6e,0x5f,0x65,0x72,0x6f,0x5f,0x6d,0x61,0x6b,0x69,0x74,0x75,0x6b,0x69,0x33,0x06,0x3a,0x06,0x45,0x54,0x3a,0x0b,0x40,0x70,0x69,0x74,0x63,0x68,0x69,0x69,0x3a,0x0c,0x40,0x76,0x6f,0x6c,0x75,0x6d,0x65,0x69,0x69))
      ShowMessageFace("namazu_fc1",2,0,2,11)
      ShowMessage("\\n<Gigi>Cease this! Release me this instant!")
      ShowMessageFace("stein_fc2",1,0,2,12)
      ShowMessage("\\n<Promestein>Become a sacrifice for the sake of science!\nHere we go, hold out your arm!")
      ShowMessageFace("lusia_fc1",1,0,2,13)
      ShowMessage("\\n<Lucia>Science demands more living sacrifices than even religion! Accept your fate as science's guinea pig!")
      ShowMessageFace("namazu_fc1",2,0,2,14)
      ShowMessage("\\n<Gigi>CEASE-!")
      221()
      ShowMessageFace("",0,0,2,15)
      ShowMessage("Promestein and Lucia injected Gigi with a strange liquid!")
      222()
      ShowMessageFace("stein_fc2",0,0,2,16)
      ShowMessage("\\n<Promestein>.........")
      ShowMessageFace("lusia_fc1",0,0,2,17)
      ShowMessage("\\n<Lucia>.........")
      ShowMessageFace("namazu_fc1",0,0,2,18)
      ShowMessage("\\n<Gigi>.........")
      ShowMessageFace("namazu_fc1",0,0,2,19)
      ShowMessage("\\n<Gigi>...Chi Pa Pa!")
      ShowMessageFace("stein_fc2",1,0,2,20)
      ShowMessage("\\n<Promestein>Success!")
      ShowMessageFace("lusia_fc1",0,0,2,21)
      ShowMessage("\\n<Lucia>We've done it!")
      250(bytes(0x04,0x08,0x6f,0x3a,0x0c,0x52,0x50,0x47,0x3a,0x3a,0x53,0x45,0x08,0x3a,0x0a,0x40,0x6e,0x61,0x6d,0x65,0x49,0x22,0x11,0x6d,0x6f,0x6e,0x5f,0x66,0x61,0x6e,0x66,0x61,0x6c,0x65,0x32,0x06,0x3a,0x06,0x45,0x54,0x3a,0x0b,0x40,0x70,0x69,0x74,0x63,0x68,0x69,0x69,0x3a,0x0c,0x40,0x76,0x6f,0x6c,0x75,0x6d,0x65,0x69,0x69))
      355("set_class_level(99, 214, 10, false, false)")
      655("set_class_level(99, 215, 10, false, true)")
      655("set_class_level(99, 217, 10, false, false)")
      ShowMessageFace("",0,0,2,22)
      ShowMessage("Gigi became a fairy!")
      ShowMessageFace("stein_fc2",1,0,2,23)
      ShowMessage("\\n<Promestein>With this, we now have the technology to transform any mermaid into a fairy! As would be expected, this requires 10 levels in the mermaid race.")
      ShowMessageFace("bunnyslime_fc1",0,0,2,24)
      ShowMessage("\\n<Bunni>Hey, what are you gonna call this extract?")
      ShowMessageFace("stein_fc2",0,0,2,25)
      ShowMessage("\\n<Promestein>Err... Catfish... Extract?") 
      ShowMessageFace("sonia_fc4",0,0,2,26)
      ShowMessage("\\n<Sonya>Getting harder and harder to come up with names for these, isn't it?")
      ShowMessageFace("stein_fc2",1,0,2,27)
      ShowMessage("\\n<Promestein>Now then, let us continue to further our research!")
      ShowMessageFace("lusia_fc1",0,0,2,28)
      ShowMessage("\\n<Lucia>I'll help in any way I can, of course.\nThe search for truth is without end, after all.")
      ShowMessageFace("namazu_fc1",0,0,2,29)
      ShowMessage("\\n<Gigi>Chi Pa Pa! Chi Pa Pa!")
      ShowMessageFace("sonia_fc4",0,0,2,30)
      ShowMessage("\\n<Sonya>........")
      PictureClear(5)
      241(bytes(0x04,0x08,0x6f,0x3a,0x0d,0x52,0x50,0x47,0x3a,0x3a,0x42,0x47,0x4d,0x08,0x3a,0x0a,0x40,0x6e,0x61,0x6d,0x65,0x49,0x22,0x0c,0x63,0x61,0x73,0x74,0x6c,0x65,0x36,0x06,0x3a,0x06,0x45,0x54,0x3a,0x0c,0x40,0x76,0x6f,0x6c,0x75,0x6d,0x65,0x69,0x69,0x3a,0x0b,0x40,0x70,0x69,0x74,0x63,0x68,0x69,0x69))
      EndEventProcessing()
      0()
     EndIf()
     0()
    EndIf()
    0()
   EndIf()
   0()
  EndIf()
  0()
 EndIf()
 0()
EndIf()
If(1,1094,0,4,0)
 ShowMessageFace("stein_fc2",1,0,2,31)
 ShowMessage("\\n<Promestein>Fufufufu...\nCurious in another race, are we?")
 ShowMessageFace("saki_fc1",0,0,2,32)
 ShowMessage("\\n<Saki>Saki wants to learn how to dance like a sea dweller!")
 ShowMessageFace("wakame_fc1",1,0,2,33)
 ShowMessage("\\n<Wakame>Me too, I want to dance like the sea...")
 ShowMessageFace("kaniloid_fc1",0,0,2,34)
 ShowMessage("\\n<Jillian>I have little interest in dancing. However... As a crab shaped android, I wish to become closer to a true crustacean.")
 ShowMessageFace("stein_fc2",1,0,2,35)
 ShowMessage("\\n<Promestein>Mufufufu, so we have three subjects who wish to become sea dwellers... Very well, prepare for your shots-")
 ShowMessageFace("poseidones_fc1",0,0,2,36)
 ShowMessage("\\n<Poseidoness>Stop right there! You mustn't rush such a thing!")
 ShowMessageFace("kraken_fc1",0,0,2,37)
 ShowMessage("\\n<Kraken>If you desire to learn the dances of the sea, there's another way.")
 ShowMessageFace("saki_fc1",0,0,2,38)
 ShowMessage("\\n<Saki>Tell me, tell me!☆")
 ShowMessageFace("wakame_fc1",1,0,2,39)
 ShowMessage("\\n<Wakame>...tell me!☆")
 ShowMessageFace("poseidones_fc1",0,0,2,40)
 ShowMessage("\\n<Poseidoness>The trial of the Palace of the Dragon King, passed down through generations. Clear it, and you'll be able to learn the Dragon Palace Dance.")
 ShowMessageFace("kraken_fc1",0,0,2,41)
 ShowMessage("\\n<Kraken>We shall begin preparations.\nNow, let us head for Natalia Coast.")
 ShowMessageFace("saki_fc1",0,0,2,42)
 ShowMessage("\\n<Saki>Natalia Coast... west from Port Natalia, right?\nOK, let's go~☆!")
 ShowMessageFace("wakame_fc1",1,0,2,43)
 ShowMessage("\\n<Wakame>Let's go~☆!")
 ShowMessageFace("kaniloid_fc1",2,0,2,44)
 ShowMessage("\\n<Jillian>Really not interested in dancing, personally...")
 ShowMessageFace("stein_fc2",2,0,2,45)
 ShowMessage("\\n<Promestein>Damn it, there goes my chance...")
 ShowMessageFace("ruka_fc1",0,0,2,46)
 ShowMessage("\\n<Luka>All right, let's head for Natalia Coast.\nI wonder...what kind of trial could it be...?")
 ChangeVariable(1094,1094,0,0,5)
 PictureClear(5)
 241(bytes(0x04,0x08,0x6f,0x3a,0x0d,0x52,0x50,0x47,0x3a,0x3a,0x42,0x47,0x4d,0x08,0x3a,0x0a,0x40,0x6e,0x61,0x6d,0x65,0x49,0x22,0x0c,0x63,0x61,0x73,0x74,0x6c,0x65,0x36,0x06,0x3a,0x06,0x45,0x54,0x3a,0x0c,0x40,0x76,0x6f,0x6c,0x75,0x6d,0x65,0x69,0x69,0x3a,0x0b,0x40,0x70,0x69,0x74,0x63,0x68,0x69,0x69))
 EndEventProcessing()
 0()
EndIf()
If(1,1094,0,7,0)
 ShowMessageFace("stein_fc2",1,0,2,47)
 ShowMessage("\\n<Promestein>Is there anybody who wishes to learn the skills of another race? Through the power of science, I can help!")
 ShowMessageFace("highslag_fc1",0,0,2,48)
 ShowMessage("\\n<Elizabeth>I wish to further refine my rapier technique...\nPlease, transform me into a yoma.")
 If(0,4,0)
  ShowMessageFace("alice_fc5",2,0,2,49)
  ShowMessage("\\n<Alice>Stop right there!\nYou must first pass the appropriate trials-")
  ShowMessageFace("stein_fc2",2,0,2,50)
  ShowMessage("\\n<Promestein>We have no need for such pointless, antiquated errands! Eat this! Idealism Eradicator #1!")
  ShowMessageFace("alice_fc5",6,0,2,51)
  ShowMessage("\\n<Alice>N-no! Stop!!")
  ShowMessageFace("alice_fc5",3,0,2,52)
  ShowMessage("\\n<Alice>Zzz...")
  313(0,5,0,11)
  ShowMessageFace("",0,0,2,53)
  ShowMessage("Alice fell asleep...")
  ShowMessageFace("stein_fc2",1,0,2,54)
  ShowMessage("\\n<Promestein>What excellent timing.\nWith the blood of the monster lord, I'll have everything I need.")
  ShowMessageFace("stein_fc2",1,0,2,55)
  ShowMessage("\\n<Promestein>Wonderful. Thank you for your kind donation, monster lord. Now to just mix it with secret ingredients A and B...")
  0()
 EndIf()
 If(0,5,0)
  ShowMessageFace("stein_fc2",1,0,2,56)
  ShowMessage("\\n<Promestein>Hmmm, I see.\nNow then, using the monster lord DNA I collected previously, let us create the extract!")
  ShowMessageFace("iriasu_fc4",2,0,2,57)
  ShowMessage("\\n<Ilias>Where on earth did you find Alipheese's DNA?")
  ShowMessageFace("stein_fc2",1,0,2,58)
  ShowMessage("\\n<Promestein>Remember the banquent at Grand Noah? I stole the glass she used and collected the cells she left on it.")
  ShowMessageFace("sonia_fc2",2,0,2,59)
  ShowMessage("\\n<Sonya>That's kind of creepy...")
  ShowMessageFace("stein_fc2",1,0,2,60)
  ShowMessage("\\n<Promestein>Now, if I just mix that DNA with secret ingredients A and B...")
  0()
 EndIf()
 250(bytes(0x04,0x08,0x6f,0x3a,0x0c,0x52,0x50,0x47,0x3a,0x3a,0x53,0x45,0x08,0x3a,0x0a,0x40,0x6e,0x61,0x6d,0x65,0x49,0x22,0x11,0x6d,0x6f,0x6e,0x5f,0x66,0x61,0x6e,0x66,0x61,0x6c,0x65,0x32,0x06,0x3a,0x06,0x45,0x54,0x3a,0x0b,0x40,0x70,0x69,0x74,0x63,0x68,0x69,0x69,0x3a,0x0c,0x40,0x76,0x6f,0x6c,0x75,0x6d,0x65,0x69,0x69))
 ShowMessageFace("stein_fc2",1,0,2,61)
 ShowMessage("\\n<Promestein>...It's complete!")
 ShowMessage("With this mixture, land dwellers can now become yoma!")
 ShowMessageFace("highslag_fc1",0,0,2,62)
 ShowMessage("\\n<Elizabeth>Wonderful. May I have my shot?\nDon't worry, I'm ready for it.")
 ShowMessageFace("stein_fc2",1,0,2,63)
 ShowMessage("\\n<Promestein>OK! Hold out your arm for me, please.\n...and done♪")
 ShowMessageFace("highslag_fc1",0,0,2,64)
 ShowMessage("\\n<Elizabeth>........")
 ShowMessageFace("highslag_fc1",1,0,2,65)
 ShowMessage("\\n<Elizabeth>I can feel a new strength blazing inside of me...\nSo this is the power of a yoma...")
 250(bytes(0x04,0x08,0x6f,0x3a,0x0c,0x52,0x50,0x47,0x3a,0x3a,0x53,0x45,0x08,0x3a,0x0a,0x40,0x6e,0x61,0x6d,0x65,0x49,0x22,0x11,0x6d,0x6f,0x6e,0x5f,0x66,0x61,0x6e,0x66,0x61,0x6c,0x65,0x32,0x06,0x3a,0x06,0x45,0x54,0x3a,0x0b,0x40,0x70,0x69,0x74,0x63,0x68,0x69,0x69,0x3a,0x0c,0x40,0x76,0x6f,0x6c,0x75,0x6d,0x65,0x69,0x69))
 355("set_class_level(85, 158, 10, false, false)")
 655("set_class_level(85, 159, 10, false, true)")
 ShowMessageFace("",0,0,2,66)
 ShowMessage("Elizabeth became a yoma!")
 ShowMessageFace("stein_fc2",1,0,2,67)
 ShowMessage("\\n<Promestein>The experiment is a success!")
 ShowMessage("I shall call this mixture... Demon Extract, I guess.")
 ShowMessageFace("bunnyslime_fc1",2,0,2,68)
 ShowMessage("\\n<Bunni>Running out of material for names, huh?")
 ShowMessageFace("stein_fc2",2,0,2,69)
 ShowMessage("\\n<Promestein>Quite embarrassing to have that pointed out by Bunni, of all people...")
 ShowMessageFace("ruka_fc1",0,0,2,70)
 ShowMessage("\\n<Luka>Anyway, with this extract, land dwellers can now become yoma, right? Looks like you're making steady progress with your research, Promestein.")
 ShowMessageFace("stein_fc2",1,0,2,71)
 ShowMessage("\\n<Promestein>Indeed, it feels wonderful.\nAt this rate, soon I'll... Mufufu.")
 ShowMessageFace("sonia_fc2",2,0,2,72)
 ShowMessage("\\n<Sonya>Getting kind of creepy, again...")
 If(0,4,0)
  ShowMessageFace("alice_fc5",3,0,2,73)
  ShowMessage("\\n<Alice>Zzz...")
  0()
 EndIf()
 ChangeSwitch(1925,1925,0)
 ChangeVariable(1094,1094,0,0,8)
 PictureClear(5)
 241(bytes(0x04,0x08,0x6f,0x3a,0x0d,0x52,0x50,0x47,0x3a,0x3a,0x42,0x47,0x4d,0x08,0x3a,0x0a,0x40,0x6e,0x61,0x6d,0x65,0x49,0x22,0x0c,0x63,0x61,0x73,0x74,0x6c,0x65,0x36,0x06,0x3a,0x06,0x45,0x54,0x3a,0x0c,0x40,0x76,0x6f,0x6c,0x75,0x6d,0x65,0x69,0x69,0x3a,0x0b,0x40,0x70,0x69,0x74,0x63,0x68,0x69,0x69))
 EndEventProcessing()
 0()
EndIf()
DefineLabel("ループ")
ShowMessageFace("stein_fc2",1,0,2,74)
ShowMessage("\\n<Promestein>Now, then, which race would you like to become...?")
355("ex_choice_add(\"Human→Vampire\",1)")
655("ex_choice_add(\"Slime→Beast\",2)")
655("ex_choice_add(\"Mermaid→Fairy\",3,")
655("\"s[1921]\",0)")
655("ex_choice_add(\"Beast→Elf\",4,")
655("\"s[1923]\",0)")
655("ex_choice_add(\"Alraune→Sea-Dweller\",5,")
655("\"s[1924]\",0)")
655("ex_choice_add(\"Land-Dweller→Yoma\",6,")
655("\"s[1925]\",0)")
655("ex_choice_add(\"Never Mind\",11)")
355("ex_choice_show(0,11,[0,0])")
If(1,9,0,1,0)
 ChangeVariable(11,11,0,3,0,317,0)
 ChangeVariable(12,12,0,3,0,224,0)
 ShowMessageFace("stein_fc2",1,0,2,75)
 ShowMessage("\\n<Promestein>If you wish to become a vampire, I'll need to make some Garlic Extract. I'll require 3 heads of garlic and 1 pitch black fragment.")
 ShowMessageFace("",0,0,2,76)
 ShowMessage("Garlic (Have:\\V[11]）")
 ShowMessage("Pitch Black Fragment (Have:\\V[12]）")
 ShowMessage("Consume these items and transform a human into a vampire?")
 ShowChoices(strings("Yes","No"),2)
 IfPlayerPicksChoice(0,null)
  If(1,11,0,3,1)
   If(1,12,0,1,1)
    ShowMessageFace("stein_fc2",1,0,2,77)
    ShowMessage("\\n<Promestein>Excellent, now who will be receiving this shot? They must have 10 levels in the human race for me to administer it.")
    355("names = party_members.collect{|m|m.name}")
    655("unlimited_choices(11, names)")
    655("if $game_variables[11] != names.size")
    655("actor = party_members[$game_variables[11]]")
    655("$game_variables[12] = actor.id")
    655("else")
    655("$game_variables[12] = 0")
    655("end")
    If(1,12,0,0,0)
     JumpToLabel("ループ")
     0()
    EndIf()
    If(12,"actor_class_level_over?(v(12), 151, 10)")
     If(12,"actor_class_level_over?(v(12), 184, 1)")
      ShowMessageFace("stein_fc2",2,0,2,78)
      ShowMessage("\\n<Promestein>It seems you already possess vampire DNA.\nSorry, but I can't give you the shot.")
      JumpToLabel("ループ")
      0()
     Else()
      ShowMessageFace("stein_fc2",1,0,2,79)
      ShowMessage("\\n<Promestein>All right, let's do this! Hold out your arm for me, please...!")
      ChangeInventory_Item(317,1,0,3)
      ChangeInventory_Item(224,1,0,1)
      355("set_class_level(v(12), 184, 1, true, true)")
      250(bytes(0x04,0x08,0x6f,0x3a,0x0c,0x52,0x50,0x47,0x3a,0x3a,0x53,0x45,0x08,0x3a,0x0a,0x40,0x6e,0x61,0x6d,0x65,0x49,0x22,0x10,0x6d,0x6f,0x6e,0x5f,0x66,0x61,0x6e,0x66,0x61,0x6c,0x65,0x06,0x3a,0x06,0x45,0x54,0x3a,0x0b,0x40,0x70,0x69,0x74,0x63,0x68,0x69,0x69,0x3a,0x0c,0x40,0x76,0x6f,0x6c,0x75,0x6d,0x65,0x69,0x69))
      ShowMessageFace("",0,0,2,80)
      ShowMessage("Became a vampire!")
      ShowMessageFace("stein_fc2",1,0,2,81)
      ShowMessage("\\n<Promestein>Fufufu, another great success!")
      JumpToLabel("ループ")
      0()
     EndIf()
     0()
    Else()
     ShowMessageFace("stein_fc2",2,0,2,82)
     ShowMessage("\\n<Promestein>Hmmm? It seems you haven't reached level 10 in the human race. You'd probably die, so I'm afraid I can't give you this shot...")
     JumpToLabel("ループ")
     0()
    EndIf()
    0()
   EndIf()
   0()
  EndIf()
  ShowMessageFace("stein_fc2",2,0,2,83)
  ShowMessage("\\n<Promestein>Oh, it seems you're lacking the required ingredients.\nMy apologies, but I can't create the extract without them.")
  JumpToLabel("ループ")
  0()
 IfPlayerPicksChoice(1,null)
  JumpToLabel("ループ")
  0()
 404()
 0()
EndIf()
If(1,9,0,2,0)
 ChangeVariable(11,11,0,3,0,310,0)
 ChangeVariable(12,12,0,3,0,238,0)
 ShowMessageFace("stein_fc2",1,0,2,84)
 ShowMessage("\\n<Promestein>If you wish to become a beast, I'll need to make some Carrot Extract. I'll require 3 carrots and 1 feral beast claw.")
 ShowMessageFace("",0,0,2,85)
 ShowMessage("Carrot (Have:\\V[11]）")
 ShowMessage("Feral Beast Claw (Have:\\V[12]）")
 ShowMessage("Consume these items and transform a slime into a beast?")
 ShowChoices(strings("Yes","No"),2)
 IfPlayerPicksChoice(0,null)
  If(1,11,0,3,1)
   If(1,12,0,1,1)
    ShowMessageFace("stein_fc2",1,0,2,86)
    ShowMessage("\\n<Promestein>Excellent, now who will be receiving this shot? They must have 10 levels in the slime race for me to administer it.")
    355("names = party_members.collect{|m|m.name}")
    655("unlimited_choices(11, names)")
    655("if $game_variables[11] != names.size")
    655("actor = party_members[$game_variables[11]]")
    655("$game_variables[12] = actor.id")
    655("else")
    655("$game_variables[12] = 0")
    655("end")
    If(1,12,0,0,0)
     JumpToLabel("ループ")
     0()
    EndIf()
    If(12,"actor_class_level_over?(v(12), 223, 10)")
     If(12,"actor_class_level_over?(v(12), 232, 1)")
      ShowMessageFace("stein_fc2",2,0,2,87)
      ShowMessage("\\n<Promestein>It seems you already possess beast DNA.\nSorry, but I can't give you the shot.")
      JumpToLabel("ループ")
      0()
     Else()
      ShowMessageFace("stein_fc2",1,0,2,88)
      ShowMessage("\\n<Promestein>All right, let's do this! Hold out your arm for me, please...!")
      ChangeInventory_Item(310,1,0,3)
      ChangeInventory_Item(238,1,0,1)
      355("set_class_level(v(12), 232, 1, true, true)")
      250(bytes(0x04,0x08,0x6f,0x3a,0x0c,0x52,0x50,0x47,0x3a,0x3a,0x53,0x45,0x08,0x3a,0x0a,0x40,0x6e,0x61,0x6d,0x65,0x49,0x22,0x10,0x6d,0x6f,0x6e,0x5f,0x66,0x61,0x6e,0x66,0x61,0x6c,0x65,0x06,0x3a,0x06,0x45,0x54,0x3a,0x0b,0x40,0x70,0x69,0x74,0x63,0x68,0x69,0x69,0x3a,0x0c,0x40,0x76,0x6f,0x6c,0x75,0x6d,0x65,0x69,0x69))
      ShowMessageFace("",0,0,2,89)
      ShowMessage("Became a beast!")
      ShowMessageFace("stein_fc2",1,0,2,90)
      ShowMessage("\\n<Promestein>Fufufu, another great success!")
      JumpToLabel("ループ")
      0()
     EndIf()
     0()
    Else()
     ShowMessageFace("stein_fc2",2,0,2,91)
     ShowMessage("\\n<Promestein>Hmmm? It seems you haven't reached level 10 in the slime race. You'd probably die, so I'm afraid I can't give you this shot...")
     JumpToLabel("ループ")
     0()
    EndIf()
    0()
   EndIf()
   0()
  EndIf()
  ShowMessageFace("stein_fc2",2,0,2,92)
  ShowMessage("\\n<Promestein>Oh, it seems you're lacking the required ingredients. My apologies, but I can't create the extract without them.")
  JumpToLabel("ループ")
  0()
 IfPlayerPicksChoice(1,null)
  JumpToLabel("ループ")
  0()
 404()
 0()
EndIf()
If(1,9,0,3,0)
 ChangeVariable(11,11,0,3,0,328,0)
 ChangeVariable(12,12,0,3,0,229,0)
 ShowMessageFace("stein_fc2",1,0,2,93)
 ShowMessage("\\n<Promestein>If you wish to become a fairy, I'll need to make some Catfish Extract. I'll require 3 eels and 1 spirit acorn.")
 ShowMessageFace("",0,0,2,94)
 ShowMessage("Eel (Have:\\V[11])")
 ShowMessage("Spirit Acorn (Have:\\V[12])")
 ShowMessage("Consume these items and transform a mermaid into a fairy?")
 ShowChoices(strings("Yes","No"),2)
 IfPlayerPicksChoice(0,null)
  If(1,11,0,3,1)
   If(1,12,0,1,1)
    ShowMessageFace("stein_fc2",1,0,2,95)
    ShowMessage("\\n<Promestein>Excellent, now who will be receiving this shot? They must have 10 levels in the mermaid race for me to administer it.")
    355("names = party_members.collect{|m|m.name}")
    655("unlimited_choices(11, names)")
    655("if $game_variables[11] != names.size")
    655("actor = party_members[$game_variables[11]]")
    655("$game_variables[12] = actor.id")
    655("else")
    655("$game_variables[12] = 0")
    655("end")
    If(1,12,0,0,0)
     JumpToLabel("ループ")
     0()
    EndIf()
    If(12,"actor_class_level_over?(v(12), 194, 10)")
     If(12,"actor_class_level_over?(v(12), 214, 1)")
      ShowMessageFace("stein_fc2",2,0,2,96)
      ShowMessage("\\n<Promestein>It seems you already possess fairy DNA.\nSorry, but I can't give you the shot.")

      JumpToLabel("ループ")
      0()
     Else()
      ShowMessageFace("stein_fc2",1,0,2,97)
      ShowMessage("\\n<Promestein>All right, let's do this! Hold out your arm for me, please...!")
      ChangeInventory_Item(328,1,0,3)
      ChangeInventory_Item(229,1,0,1)
      355("set_class_level(v(12), 214, 1, true, true)")
      250(bytes(0x04,0x08,0x6f,0x3a,0x0c,0x52,0x50,0x47,0x3a,0x3a,0x53,0x45,0x08,0x3a,0x0a,0x40,0x6e,0x61,0x6d,0x65,0x49,0x22,0x10,0x6d,0x6f,0x6e,0x5f,0x66,0x61,0x6e,0x66,0x61,0x6c,0x65,0x06,0x3a,0x06,0x45,0x54,0x3a,0x0b,0x40,0x70,0x69,0x74,0x63,0x68,0x69,0x69,0x3a,0x0c,0x40,0x76,0x6f,0x6c,0x75,0x6d,0x65,0x69,0x69))
      ShowMessageFace("",0,0,2,98)
      ShowMessage("Became a fairy!")
      ShowMessageFace("stein_fc2",1,0,2,99)
      ShowMessage("\\n<Promestein>Fufufu, another great success!")
      JumpToLabel("ループ")
      0()
     EndIf()
     0()
    Else()
     ShowMessageFace("stein_fc2",2,0,2,100)
     ShowMessage("\\n<Promestein>Hmmm? It seems you haven't reached level 10 in the mermaid race. You'd probably die, so I'm afraid I can't give you this shot...")
     JumpToLabel("ループ")
     0()
    EndIf()
    0()
   EndIf()
   0()
  EndIf()
  ShowMessageFace("stein_fc2",2,0,2,101)
  ShowMessage("\\n<Promestein>Oh, it seems you're lacking the required ingredients. My apologies, but I can't create the extract without them.")
  JumpToLabel("ループ")
  0()
 IfPlayerPicksChoice(1,null)
  JumpToLabel("ループ")
  0()
 404()
 0()
EndIf()
If(1,9,0,4,0)
 ChangeVariable(11,11,0,3,0,445,0)
 ChangeVariable(12,12,0,3,0,230,0)
 ShowMessageFace("stein_fc2",1,0,2,102)
 ShowMessage("\\n<Promestein>If you wish to become an elf, I'll need to make some Forest Extract. I'll require 3 weeds and 1 magic crystallized tear.")
 ShowMessageFace("",0,0,2,103)
 ShowMessage("Weed (Have:\\V[11])")
 ShowMessage("Magic Crystallized Tears (Have:\\V[12])")
 ShowMessage("Consume these items and transform a beast into an elf?")
 ShowChoices(strings("Yes","No"),2)
 IfPlayerPicksChoice(0,null)
  If(1,11,0,3,1)
   If(1,12,0,1,1)
    ShowMessageFace("stein_fc2",1,0,2,104)
    ShowMessage("\\n<Promestein>Excellent, now who will be receiving this shot? They must have 10 levels in the beast race for me to administer it.")
    355("names = party_members.collect{|m|m.name}")
    655("unlimited_choices(11, names)")
    655("if $game_variables[11] != names.size")
    655("actor = party_members[$game_variables[11]]")
    655("$game_variables[12] = actor.id")
    655("else")
    655("$game_variables[12] = 0")
    655("end")
    If(1,12,0,0,0)
     JumpToLabel("ループ")
     0()
    EndIf()
    If(12,"actor_class_level_over?(v(12), 232, 10)")
     If(12,"actor_class_level_over?(v(12), 203, 1)")
      ShowMessageFace("stein_fc2",2,0,2,105)
      ShowMessage("\\n<Promestein>It seems you already possess elf DNA.\nSorry, but I can't give you the shot.")
      JumpToLabel("ループ")
      0()
     Else()
      ShowMessageFace("stein_fc2",1,0,2,106)
      ShowMessage("\\n<Promestein>All right, let's do this! Hold out your arm for me, please...!")
      ChangeInventory_Item(445,1,0,3)
      ChangeInventory_Item(230,1,0,1)
      355("set_class_level(v(12), 203, 1, true, true)")
      250(bytes(0x04,0x08,0x6f,0x3a,0x0c,0x52,0x50,0x47,0x3a,0x3a,0x53,0x45,0x08,0x3a,0x0a,0x40,0x6e,0x61,0x6d,0x65,0x49,0x22,0x10,0x6d,0x6f,0x6e,0x5f,0x66,0x61,0x6e,0x66,0x61,0x6c,0x65,0x06,0x3a,0x06,0x45,0x54,0x3a,0x0b,0x40,0x70,0x69,0x74,0x63,0x68,0x69,0x69,0x3a,0x0c,0x40,0x76,0x6f,0x6c,0x75,0x6d,0x65,0x69,0x69))
      ShowMessageFace("",0,0,2,107)
      ShowMessage("Became an elf!")
      ShowMessageFace("stein_fc2",1,0,2,108)
      ShowMessage("\\n<Promestein>Fufufu, another great success!")
      JumpToLabel("ループ")
      0()
     EndIf()
     0()
    Else()
     ShowMessageFace("stein_fc2",2,0,2,109)
     ShowMessage("\\n<Promestein>Hmmm? It seems you haven't reached level 10 in the beast race. You'd probably die, so I'm afraid I can't give you this shot...")
     JumpToLabel("ループ")
     0()
    EndIf()
    0()
   EndIf()
   0()
  EndIf()
  ShowMessageFace("stein_fc2",2,0,2,110)
  ShowMessage("\\n<Promestein>Oh, it seems you're lacking the required ingredients. My apologies, but I can't create the extract without them.")
  JumpToLabel("ループ")
  0()
 IfPlayerPicksChoice(1,null)
  JumpToLabel("ループ")
  0()
 404()
 0()
EndIf()
If(1,9,0,5,0)
 ChangeVariable(11,11,0,3,0,433,0)
 ChangeVariable(12,12,0,3,0,202,0)
 ShowMessageFace("stein_fc2",1,0,2,111)
 ShowMessage("\\n<Promestein>If you wish to become a sea dweller, I'll need to make some Squid Extract. I'll require 3 dried squid and 1 coiling tentacle.")
 ShowMessageFace("",0,0,2,112)
 ShowMessage("Dried Squid (Have:\\V[11])")
 ShowMessage("Coiling Tentacle (Have:\\V[12])")
 ShowMessage("Consume these items and transform an alraune into a sea dweller?")
 ShowChoices(strings("Yes","No"),2)
 IfPlayerPicksChoice(0,null)
  If(1,11,0,3,1)
   If(1,12,0,1,1)
    ShowMessageFace("stein_fc2",1,0,2,113)
    ShowMessage("\\n<Promestein>Excellent, now who will be receiving this shot? They must have 10 levels in the alraune race for me to administer it.")
    355("names = party_members.collect{|m|m.name}")
    655("unlimited_choices(11, names)")
    655("if $game_variables[11] != names.size")
    655("actor = party_members[$game_variables[11]]")
    655("$game_variables[12] = actor.id")
    655("else")
    655("$game_variables[12] = 0")
    655("end")
    If(1,12,0,0,0)
     JumpToLabel("ループ")
     0()
    EndIf()
    If(12,"actor_class_level_over?(v(12), 319, 10)")
     If(12,"actor_class_level_over?(v(12), 301, 1)")
      ShowMessageFace("stein_fc2",2,0,2,114)
      ShowMessage("\\n<Promestein>It seems you already possess sea dweller DNA.\nSorry, but I can't give you the shot.")
      JumpToLabel("ループ")
      0()
     Else()
      ShowMessageFace("stein_fc2",1,0,2,115)
      ShowMessage("\\n<Promestein>All right, let's do this! Hold out your arm for me, please...!")
      ChangeInventory_Item(433,1,0,3)
      ChangeInventory_Item(202,1,0,1)
      355("set_class_level(v(12), 301, 1, true, true)")
      250(bytes(0x04,0x08,0x6f,0x3a,0x0c,0x52,0x50,0x47,0x3a,0x3a,0x53,0x45,0x08,0x3a,0x0a,0x40,0x6e,0x61,0x6d,0x65,0x49,0x22,0x10,0x6d,0x6f,0x6e,0x5f,0x66,0x61,0x6e,0x66,0x61,0x6c,0x65,0x06,0x3a,0x06,0x45,0x54,0x3a,0x0b,0x40,0x70,0x69,0x74,0x63,0x68,0x69,0x69,0x3a,0x0c,0x40,0x76,0x6f,0x6c,0x75,0x6d,0x65,0x69,0x69))
      ShowMessageFace("",0,0,2,116)
      ShowMessage("Became a sea dweller!")
      ShowMessageFace("stein_fc2",1,0,2,117)
      ShowMessage("\\n<Promestein>Fufufu, another great success!")
      JumpToLabel("ループ")
      0()
     EndIf()
     0()
    Else()
     ShowMessageFace("stein_fc2",2,0,2,118)
     ShowMessage("\\n<Promestein>Hmmm? It seems you haven't reached level 10 in the alraune race. You'd probably die, so I'm afraid I can't give you this shot...")
     JumpToLabel("ループ")
     0()
    EndIf()
    0()
   EndIf()
   0()
  EndIf()
  ShowMessageFace("stein_fc2",2,0,2,119)
  ShowMessage("\\n<Promestein>Oh, it seems you're lacking the required ingredients. My apologies, but I can't create the extract without them.")
  JumpToLabel("ループ")
  0()
 IfPlayerPicksChoice(1,null)
  JumpToLabel("ループ")
  0()
 404()
 0()
EndIf()
If(1,9,0,6,0)
 ChangeVariable(11,11,0,3,0,444,0)
 ChangeVariable(12,12,0,3,0,236,0)
 ShowMessageFace("stein_fc2",1,0,2,120)
 ShowMessage("\\n<Promestein>If you wish to become a yoma, I'll need to make some Demon Extract. I'll require 3 skulls and 1 spirit crystal.")
 ShowMessageFace("",0,0,2,121)
 ShowMessage("Skull (Have:\\V[11])")
 ShowMessage("Spirit Crystal (Have:\\V[12])")
 ShowMessage("Consume these items and transform a land dweller into a yoma?")
 ShowChoices(strings("Yes","No"),2)
 IfPlayerPicksChoice(0,null)
  If(1,11,0,3,1)
   If(1,12,0,1,1)
    ShowMessageFace("stein_fc2",1,0,2,122)
    ShowMessage("\\n<Promestein>Excellent, now who will be receiving this shot? They must have 10 levels in the land dweller race for me to administer it.")
    355("names = party_members.collect{|m|m.name}")
    655("unlimited_choices(11, names)")
    655("if $game_variables[11] != names.size")
    655("actor = party_members[$game_variables[11]]")
    655("$game_variables[12] = actor.id")
    655("else")
    655("$game_variables[12] = 0")
    655("end")
    If(1,12,0,0,0)
     JumpToLabel("ループ")
     0()
    EndIf()
    If(12,"actor_class_level_over?(v(12), 293, 10)")
     If(12,"actor_class_level_over?(v(12), 158, 1)")
      ShowMessageFace("stein_fc2",2,0,2,123)
      ShowMessage("\\n<Promestein>It seems you already possess yoma DNA.\nSorry, but I can't give you the shot.")
      JumpToLabel("ループ")
      0()
     Else()
      ShowMessageFace("stein_fc2",1,0,2,124)
      ShowMessage("\\n<Promestein>All right, let's do this! Hold out your arm for me, please...!")
      ChangeInventory_Item(444,1,0,3)
      ChangeInventory_Item(236,1,0,1)
      355("set_class_level(v(12), 158, 1, true, true)")
      250(bytes(0x04,0x08,0x6f,0x3a,0x0c,0x52,0x50,0x47,0x3a,0x3a,0x53,0x45,0x08,0x3a,0x0a,0x40,0x6e,0x61,0x6d,0x65,0x49,0x22,0x10,0x6d,0x6f,0x6e,0x5f,0x66,0x61,0x6e,0x66,0x61,0x6c,0x65,0x06,0x3a,0x06,0x45,0x54,0x3a,0x0b,0x40,0x70,0x69,0x74,0x63,0x68,0x69,0x69,0x3a,0x0c,0x40,0x76,0x6f,0x6c,0x75,0x6d,0x65,0x69,0x69))
      ShowMessageFace("",0,0,2,125)
      ShowMessage("Became a yoma!")
      ShowMessageFace("stein_fc2",1,0,2,126)
      ShowMessage("\\n<Promestein>Fufufu, another great success!")
      JumpToLabel("ループ")
      0()
     EndIf()
     0()
    Else()
     ShowMessageFace("stein_fc2",2,0,2,127)
     ShowMessage("\\n<Promestein>Hmmm? It seems you haven't reached level 10 in the land dweller race. You'd probably die, so I'm afraid I can't give you this shot...")
     JumpToLabel("ループ")
     0()
    EndIf()
    0()
   EndIf()
   0()
  EndIf()
  ShowMessageFace("stein_fc2",2,0,2,128)
  ShowMessage("\\n<Promestein>Oh, it seems you're lacking the required ingredients. My apologies, but I can't create the extract without them.")
  JumpToLabel("ループ")
  0()
 IfPlayerPicksChoice(1,null)
  JumpToLabel("ループ")
  0()
 404()
 0()
EndIf()
PictureClear(5)
241(bytes(0x04,0x08,0x6f,0x3a,0x0d,0x52,0x50,0x47,0x3a,0x3a,0x42,0x47,0x4d,0x08,0x3a,0x0a,0x40,0x6e,0x61,0x6d,0x65,0x49,0x22,0x0c,0x63,0x61,0x73,0x74,0x6c,0x65,0x36,0x06,0x3a,0x06,0x45,0x54,0x3a,0x0c,0x40,0x76,0x6f,0x6c,0x75,0x6d,0x65,0x69,0x69,0x3a,0x0b,0x40,0x70,0x69,0x74,0x63,0x68,0x69,0x69))
EndEventProcessing()
0()
