﻿


EVENT   1
 PAGE   1
  0()
 PAGE   2
  // condition: switch 31 is ON
  0()



EVENT   2
 PAGE   1
  0()
 PAGE   2
  // condition: switch 31 is ON
  0()



EVENT   3
 PAGE   1
  0()
 PAGE   2
  // condition: switch 31 is ON
  0()



EVENT   4
 PAGE   1
  0()
 PAGE   2
  // condition: switch 31 is ON
  0()



EVENT   5
 PAGE   1
  0()



EVENT   6
 PAGE   1
  0()



EVENT   7
 PAGE   1
  0()



EVENT   8
 PAGE   1
  0()



EVENT   9
 PAGE   1
  0()



EVENT   10
 PAGE   1
  0()



EVENT   11
 PAGE   1
  0()



EVENT   12
 PAGE   1
  0()



EVENT   13
 PAGE   1
  0()



EVENT   14
 PAGE   1
  0()



EVENT   15
 PAGE   1
  0()



EVENT   16
 PAGE   1
  ShowMessageFace("gob_fc1",6,0,2,1)
  ShowMessage("\\n<Goblin Girl>I'm sorry for all the trouble I've caused.")
  ShowMessageFace("pramia_fc1",4,0,2,2)
  ShowMessage("\\n<Tiny Lamia>I apologize for everything.")
  ShowMessageFace("vgirl_fc1",4,0,2,3)
  ShowMessage("\\n<Vampire Girl>Please forgive us...")
  ShowMessageFace("dragonp_fc1",4,0,2,4)
  ShowMessage("\\n<Dragon Pup>We're sorry...")
  If(0,6,0)
   ShowMessageFace("sonia_fc4",0,0,2,5)
   ShowMessage("\\n<Sonya>We're honestly very sorry for all the trouble these girls have caused you.")
   ShowMessageFace("ruka_fc1",0,0,2,6)
   ShowMessage("\\n<Luka>Why are you apologizing Sonya?")
   ShowMessageFace("sonia_fc4",0,0,2,7)
   ShowMessage("\\n<Sonya>I promised I'd apologize with them.")
   0()
  EndIf()
  Wait(60)
  ShowMessageFace("",0,0,2,8)
  ShowMessage("\\n<Old Man>Oh bother, the bandits were these little girls?")
  ShowMessageFace("",0,0,2,9)
  ShowMessage("\\n<Youth>I'd seen them around a few times, but I just figured they were bandit recruits, not the only members.")
  ShowMessageFace("",0,0,2,10)
  ShowMessage("\\n<Warrior>Who was the one who even started the rumor that their boss was a fearsome dragon?")
  ShowMessageFace("ruka_fc1",0,0,2,11)
  ShowMessage("\\n<Luka>Umm... Anyway, they said they won't cause any trouble from now on.")
  205(11,bytes(0x04,0x08,0x6f,0x3a,0x13,0x52,0x50,0x47,0x3a,0x3a,0x4d,0x6f,0x76,0x65,0x52,0x6f,0x75,0x74,0x65,0x09,0x3a,0x0c,0x40,0x72,0x65,0x70,0x65,0x61,0x74,0x46,0x3a,0x0f,0x40,0x73,0x6b,0x69,0x70,0x70,0x61,0x62,0x6c,0x65,0x46,0x3a,0x0a,0x40,0x77,0x61,0x69,0x74,0x54,0x3a,0x0a,0x40,0x6c,0x69,0x73,0x74,0x5b,0x07,0x6f,0x3a,0x15,0x52,0x50,0x47,0x3a,0x3a,0x4d,0x6f,0x76,0x65,0x43,0x6f,0x6d,0x6d,0x61,0x6e,0x64,0x07,0x3a,0x0a,0x40,0x63,0x6f,0x64,0x65,0x69,0x09,0x3a,0x10,0x40,0x70,0x61,0x72,0x61,0x6d,0x65,0x74,0x65,0x72,0x73,0x5b,0x00,0x6f,0x3b,0x0a,0x07,0x3b,0x0b,0x69,0x00,0x3b,0x0c,0x5b,0x00))
  ShowMessageFace("",0,0,2,12)
  ShowMessage("\\n<Lady Sutherland>I'm all right with forgiving them. They seem apologetic, after all. I bet they've led hard lives.")
  ShowMessageFace("",0,0,2,13)
  ShowMessage("\\n<Elderly Man>I remember a lot of monsters living in the western woods before they were cut down. It may be our fault for destroying their habitat.")
  ShowMessageFace("",0,0,2,14)
  ShowMessage("\\n<Item Shopkeeper>It's not like they did any real damage either. We were just scared because we heard they had a dragon and a vampire.")
  If(0,4,0)
   ShowMessageFace("alice_fc5",1,0,2,15)
   ShowMessage("\\n<Alice>It seems they've been forgiven. Not that I would have let them get lynched anyway.")
   0()
  EndIf()
  If(0,5,0)
   ShowMessageFace("iriasu_fc4",2,0,2,16)
   ShowMessage("\\n<Ilias>...are you all really okay with this? Surely they should be made to toil and suffer through hard labor in the city.")
   0()
  EndIf()
  ShowMessageFace("",0,0,2,17)
  ShowMessage("\\n<Lady Sutherland>Well that's that. It's time for them to turn over a new leaf and redeem themselves by making an honest living.")
  241(bytes(0x04,0x08,0x6f,0x3a,0x0d,0x52,0x50,0x47,0x3a,0x3a,0x42,0x47,0x4d,0x08,0x3a,0x0a,0x40,0x6e,0x61,0x6d,0x65,0x49,0x22,0x0a,0x63,0x69,0x74,0x79,0x31,0x06,0x3a,0x06,0x45,0x54,0x3a,0x0c,0x40,0x76,0x6f,0x6c,0x75,0x6d,0x65,0x69,0x69,0x3a,0x0b,0x40,0x70,0x69,0x74,0x63,0x68,0x69,0x69))
  ShowMessageFace("gob_fc1",6,0,2,18)
  ShowMessage("\\n<Goblin Girl>*Sniffle*")
  ShowMessageFace("vgirl_fc1",4,0,2,19)
  ShowMessage("\\n<Vampire Girl>Thank you so much... *sniff*")
  205(21,bytes(0x04,0x08,0x6f,0x3a,0x13,0x52,0x50,0x47,0x3a,0x3a,0x4d,0x6f,0x76,0x65,0x52,0x6f,0x75,0x74,0x65,0x09,0x3a,0x0c,0x40,0x72,0x65,0x70,0x65,0x61,0x74,0x46,0x3a,0x0f,0x40,0x73,0x6b,0x69,0x70,0x70,0x61,0x62,0x6c,0x65,0x46,0x3a,0x0a,0x40,0x77,0x61,0x69,0x74,0x54,0x3a,0x0a,0x40,0x6c,0x69,0x73,0x74,0x5b,0x07,0x6f,0x3a,0x15,0x52,0x50,0x47,0x3a,0x3a,0x4d,0x6f,0x76,0x65,0x43,0x6f,0x6d,0x6d,0x61,0x6e,0x64,0x07,0x3a,0x0a,0x40,0x63,0x6f,0x64,0x65,0x69,0x09,0x3a,0x10,0x40,0x70,0x61,0x72,0x61,0x6d,0x65,0x74,0x65,0x72,0x73,0x5b,0x00,0x6f,0x3b,0x0a,0x07,0x3b,0x0b,0x69,0x00,0x3b,0x0c,0x5b,0x00))
  ShowMessageFace("",0,0,2,20)
  ShowMessage("\\n<Blacksmith>Hey Dragon Girl, you can breathe fire, right? I could use you to keep the forge hot.")
  205(18,bytes(0x04,0x08,0x6f,0x3a,0x13,0x52,0x50,0x47,0x3a,0x3a,0x4d,0x6f,0x76,0x65,0x52,0x6f,0x75,0x74,0x65,0x09,0x3a,0x0c,0x40,0x72,0x65,0x70,0x65,0x61,0x74,0x46,0x3a,0x0f,0x40,0x73,0x6b,0x69,0x70,0x70,0x61,0x62,0x6c,0x65,0x46,0x3a,0x0a,0x40,0x77,0x61,0x69,0x74,0x54,0x3a,0x0a,0x40,0x6c,0x69,0x73,0x74,0x5b,0x07,0x6f,0x3a,0x15,0x52,0x50,0x47,0x3a,0x3a,0x4d,0x6f,0x76,0x65,0x43,0x6f,0x6d,0x6d,0x61,0x6e,0x64,0x07,0x3a,0x0a,0x40,0x63,0x6f,0x64,0x65,0x69,0x09,0x3a,0x10,0x40,0x70,0x61,0x72,0x61,0x6d,0x65,0x74,0x65,0x72,0x73,0x5b,0x00,0x6f,0x3b,0x0a,0x07,0x3b,0x0b,0x69,0x00,0x3b,0x0c,0x5b,0x00))
  ShowMessageFace("",0,0,2,21)
  ShowMessage("\\n<Courier Guild>The little one over there looks pretty strong. Would you like to work in our warehouse?")
  If(0,6,0)
   ShowMessageFace("sonia_fc1",0,0,2,22)
   ShowMessage("\\n<Sonya>It looks like they're being accepted into the town. What a relief!")
   If(4,53,0)
    ShowMessageFace("slime_fc1",0,0,2,23)
    ShowMessage("\\n<Lime>It's definitely possible for us to get along with humans. Our relationship with the people of Iliasville is proof. ♪")
    0()
   EndIf()
   ShowMessageFace("ruka_fc1",0,0,2,24)
   ShowMessage("\\n<Luka>Yep, all's well that ends well.")
   0()
  Else()
   ShowMessageFace("ruka_fc1",0,0,2,25)
   ShowMessage("\\n<Luka>It looks like they're being accepted into the town. That's good to see.")
   0()
  EndIf()
  If(0,4,0)
   ShowMessageFace("alice_fc5",0,0,2,26)
   ShowMessage("\\n<Alice>But what happened with Amira the Information Broker? It seems that her being captured by these girls was nothing but a rumor.")
   0()
  EndIf()
  If(0,5,0)
   ShowMessageFace("iriasu_fc4",2,0,2,27)
   ShowMessage("\\n<Ilias>But this doesn't get us any closer to finding Amira the Information Broker. It appears her being captured by these monsters was a lie.")
   0()
  EndIf()
  ShowMessageFace("ruka_fc1",0,0,2,28)
  ShowMessage("\\n<Luka>Yeah, I wonder...")
  ShowMessageFace("",0,0,2,29)
  ShowMessage("She was the reason we went after the bandits in the first place. Now that they're taken care of, we have to find Amira.")
  ChangeSwitch(31,31,0)
  205(1,bytes(0x04,0x08,0x6f,0x3a,0x13,0x52,0x50,0x47,0x3a,0x3a,0x4d,0x6f,0x76,0x65,0x52,0x6f,0x75,0x74,0x65,0x09,0x3a,0x0c,0x40,0x72,0x65,0x70,0x65,0x61,0x74,0x46,0x3a,0x0f,0x40,0x73,0x6b,0x69,0x70,0x70,0x61,0x62,0x6c,0x65,0x46,0x3a,0x0a,0x40,0x77,0x61,0x69,0x74,0x46,0x3a,0x0a,0x40,0x6c,0x69,0x73,0x74,0x5b,0x07,0x6f,0x3a,0x15,0x52,0x50,0x47,0x3a,0x3a,0x4d,0x6f,0x76,0x65,0x43,0x6f,0x6d,0x6d,0x61,0x6e,0x64,0x07,0x3a,0x0a,0x40,0x63,0x6f,0x64,0x65,0x69,0x16,0x3a,0x10,0x40,0x70,0x61,0x72,0x61,0x6d,0x65,0x74,0x65,0x72,0x73,0x5b,0x00,0x6f,0x3b,0x0a,0x07,0x3b,0x0b,0x69,0x00,0x3b,0x0c,0x5b,0x00))
  205(2,bytes(0x04,0x08,0x6f,0x3a,0x13,0x52,0x50,0x47,0x3a,0x3a,0x4d,0x6f,0x76,0x65,0x52,0x6f,0x75,0x74,0x65,0x09,0x3a,0x0c,0x40,0x72,0x65,0x70,0x65,0x61,0x74,0x46,0x3a,0x0f,0x40,0x73,0x6b,0x69,0x70,0x70,0x61,0x62,0x6c,0x65,0x46,0x3a,0x0a,0x40,0x77,0x61,0x69,0x74,0x46,0x3a,0x0a,0x40,0x6c,0x69,0x73,0x74,0x5b,0x07,0x6f,0x3a,0x15,0x52,0x50,0x47,0x3a,0x3a,0x4d,0x6f,0x76,0x65,0x43,0x6f,0x6d,0x6d,0x61,0x6e,0x64,0x07,0x3a,0x0a,0x40,0x63,0x6f,0x64,0x65,0x69,0x16,0x3a,0x10,0x40,0x70,0x61,0x72,0x61,0x6d,0x65,0x74,0x65,0x72,0x73,0x5b,0x00,0x6f,0x3b,0x0a,0x07,0x3b,0x0b,0x69,0x00,0x3b,0x0c,0x5b,0x00))
  205(3,bytes(0x04,0x08,0x6f,0x3a,0x13,0x52,0x50,0x47,0x3a,0x3a,0x4d,0x6f,0x76,0x65,0x52,0x6f,0x75,0x74,0x65,0x09,0x3a,0x0c,0x40,0x72,0x65,0x70,0x65,0x61,0x74,0x46,0x3a,0x0f,0x40,0x73,0x6b,0x69,0x70,0x70,0x61,0x62,0x6c,0x65,0x46,0x3a,0x0a,0x40,0x77,0x61,0x69,0x74,0x46,0x3a,0x0a,0x40,0x6c,0x69,0x73,0x74,0x5b,0x07,0x6f,0x3a,0x15,0x52,0x50,0x47,0x3a,0x3a,0x4d,0x6f,0x76,0x65,0x43,0x6f,0x6d,0x6d,0x61,0x6e,0x64,0x07,0x3a,0x0a,0x40,0x63,0x6f,0x64,0x65,0x69,0x16,0x3a,0x10,0x40,0x70,0x61,0x72,0x61,0x6d,0x65,0x74,0x65,0x72,0x73,0x5b,0x00,0x6f,0x3b,0x0a,0x07,0x3b,0x0b,0x69,0x00,0x3b,0x0c,0x5b,0x00))
  205(4,bytes(0x04,0x08,0x6f,0x3a,0x13,0x52,0x50,0x47,0x3a,0x3a,0x4d,0x6f,0x76,0x65,0x52,0x6f,0x75,0x74,0x65,0x09,0x3a,0x0c,0x40,0x72,0x65,0x70,0x65,0x61,0x74,0x46,0x3a,0x0f,0x40,0x73,0x6b,0x69,0x70,0x70,0x61,0x62,0x6c,0x65,0x46,0x3a,0x0a,0x40,0x77,0x61,0x69,0x74,0x54,0x3a,0x0a,0x40,0x6c,0x69,0x73,0x74,0x5b,0x07,0x6f,0x3a,0x15,0x52,0x50,0x47,0x3a,0x3a,0x4d,0x6f,0x76,0x65,0x43,0x6f,0x6d,0x6d,0x61,0x6e,0x64,0x07,0x3a,0x0a,0x40,0x63,0x6f,0x64,0x65,0x69,0x16,0x3a,0x10,0x40,0x70,0x61,0x72,0x61,0x6d,0x65,0x74,0x65,0x72,0x73,0x5b,0x00,0x6f,0x3b,0x0a,0x07,0x3b,0x0b,0x69,0x00,0x3b,0x0c,0x5b,0x00))
  ShowMessageFace("gob_fc1",0,0,2,30)
  ShowMessage("\\n<Goblin Girl>Thank you, hero! We're all going to stay here and work in town!")
  ShowMessageFace("pramia_fc1",0,0,2,31)
  ShowMessage("\\n<Tiny Lamia>Our band of thieves is officially dissolved!")
  ShowMessageFace("vgirl_fc1",0,0,2,32)
  ShowMessage("\\n<Vampire Girl>We won't cause trouble again!")
  ShowMessageFace("dragonp_fc1",0,0,2,33)
  ShowMessage("\\n<Dragon Pup>We're going to become fine monsters who help society!")
  ShowMessageFace("ruka_fc1",0,0,2,34)
  ShowMessage("\\n<Luka>Great to hear. Good luck!")
  If(0,6,0)
   ShowMessageFace("sonia_fc1",0,0,2,35)
   ShowMessage("\\n<Sonya>Yeah, we'll be cheering you on.")
   0()
  EndIf()
  205(11,bytes(0x04,0x08,0x6f,0x3a,0x13,0x52,0x50,0x47,0x3a,0x3a,0x4d,0x6f,0x76,0x65,0x52,0x6f,0x75,0x74,0x65,0x09,0x3a,0x0c,0x40,0x72,0x65,0x70,0x65,0x61,0x74,0x46,0x3a,0x0f,0x40,0x73,0x6b,0x69,0x70,0x70,0x61,0x62,0x6c,0x65,0x46,0x3a,0x0a,0x40,0x77,0x61,0x69,0x74,0x54,0x3a,0x0a,0x40,0x6c,0x69,0x73,0x74,0x5b,0x07,0x6f,0x3a,0x15,0x52,0x50,0x47,0x3a,0x3a,0x4d,0x6f,0x76,0x65,0x43,0x6f,0x6d,0x6d,0x61,0x6e,0x64,0x07,0x3a,0x0a,0x40,0x63,0x6f,0x64,0x65,0x69,0x16,0x3a,0x10,0x40,0x70,0x61,0x72,0x61,0x6d,0x65,0x74,0x65,0x72,0x73,0x5b,0x00,0x6f,0x3b,0x0a,0x07,0x3b,0x0b,0x69,0x00,0x3b,0x0c,0x5b,0x00))
  ShowMessageFace("",0,0,2,36)
  ShowMessage("\\n<Lady Sutherland>I've heard your name is Luka, hero. Please stay the night at my inn.")
  ShowMessageFace("",0,0,2,37)
  ShowMessage("\\n<Lady Sutherland>It's on the house, of course. It's the least I can do to show you the town's thanks.")
  ShowMessageFace("ruka_fc1",0,0,2,38)
  ShowMessage("\\n<Luka>We can't possibly turn that down...")
  If(0,6,0)
   ShowSpeechBalloon(20,3,false)
   ShowMessageFace("sonia_fc3",6,0,2,39)
   ShowMessage("\\n<Sonya>Nice! A fancy inn!")
   0()
  EndIf()
  If(4,60,0)
   ShowMessageFace("dog_fc1",4,0,2,40)
   ShowMessage("\\n<Pochi>Woof woof! I want some ribs tonight!")
   0()
  EndIf()
  ShowMessageFace("",0,0,2,41)
  ShowMessage("Thus, we were invited back to the Sutherland Inn.")
  ChangeSwitch(31,31,1)
  ChangeVariable(1003,1003,0,0,8)
  ChangeSwitch(100,100,1)
  221()
  249(bytes(0x04,0x08,0x6f,0x3a,0x0c,0x52,0x50,0x47,0x3a,0x3a,0x4d,0x45,0x08,0x3a,0x0a,0x40,0x6e,0x61,0x6d,0x65,0x49,0x22,0x08,0x49,0x6e,0x6e,0x06,0x3a,0x06,0x45,0x54,0x3a,0x0b,0x40,0x70,0x69,0x74,0x63,0x68,0x69,0x69,0x3a,0x0c,0x40,0x76,0x6f,0x6c,0x75,0x6d,0x65,0x69,0x69))
  Wait(150)
  314(0,0)
  216(0)
  281(1)
  TeleportPlayer(0,30,78,95,8,2)
  222()
  355("gain_medal(8)")
  ShowMessageFace("",0,0,2,42)
  ShowMessage("\\n<Lady Sutherland>Safe travels. You're all welcome to stay here at a reduced rate at any time.")
  ShowMessageFace("ruka_fc1",0,0,2,43)
  ShowMessage("\\n<Luka>Thank you so much!")
  ShowMessageFace("",0,0,2,44)
  ShowMessage("We can consider this case closed, but just what happened to Amira...")
  0()



EVENT   17
 PAGE   1
  0()



EVENT   18
 PAGE   1
  0()



EVENT   19
 PAGE   1
  0()

EVENT   20
 PAGE   1
  // condition: switch 6 is ON
  0()



EVENT   21
 PAGE   1
  0()


