﻿


EVENT   1
 PAGE   1
  // condition: switch 2278 is ON
  241(bytes(0x04,0x08,0x6f,0x3a,0x0d,0x52,0x50,0x47,0x3a,0x3a,0x42,0x47,0x4d,0x08,0x3a,0x0a,0x40,0x6e,0x61,0x6d,0x65,0x49,0x22,0x10,0x73,0x63,0x65,0x6e,0x65,0x5f,0x63,0x6f,0x6d,0x69,0x32,0x06,0x3a,0x06,0x45,0x54,0x3a,0x0c,0x40,0x76,0x6f,0x6c,0x75,0x6d,0x65,0x69,0x69,0x3a,0x0b,0x40,0x70,0x69,0x74,0x63,0x68,0x69,0x69))
  ShowMessageFace("ruka_fc1",0,0,2,1)
  ShowMessage("\\n<Luka>......")
  If(0,6,0)
   ShowMessageFace("sonia_fc4",0,0,2,2)
   ShowMessage("\\n<Sonya>......")
   0()
  EndIf()
  ShowMessageFace("elfhime_fc1",0,0,2,3)
  ShowMessage("\\n<Elf Princess>......")
  ChangeVariable(11,11,0,3,5,34,1)
  If(1,11,0,29,5)
   TeleportEvent(34,0,46,29,4)
   0()
  EndIf()
  205(34,bytes(0x04,0x08,0x6f,0x3a,0x13,0x52,0x50,0x47,0x3a,0x3a,0x4d,0x6f,0x76,0x65,0x52,0x6f,0x75,0x74,0x65,0x09,0x3a,0x0c,0x40,0x72,0x65,0x70,0x65,0x61,0x74,0x46,0x3a,0x0f,0x40,0x73,0x6b,0x69,0x70,0x70,0x61,0x62,0x6c,0x65,0x46,0x3a,0x0a,0x40,0x77,0x61,0x69,0x74,0x54,0x3a,0x0a,0x40,0x6c,0x69,0x73,0x74,0x5b,0x0a,0x6f,0x3a,0x15,0x52,0x50,0x47,0x3a,0x3a,0x4d,0x6f,0x76,0x65,0x43,0x6f,0x6d,0x6d,0x61,0x6e,0x64,0x07,0x3a,0x0a,0x40,0x63,0x6f,0x64,0x65,0x69,0x06,0x3a,0x10,0x40,0x70,0x61,0x72,0x61,0x6d,0x65,0x74,0x65,0x72,0x73,0x5b,0x00,0x6f,0x3b,0x0a,0x07,0x3b,0x0b,0x69,0x06,0x3b,0x0c,0x5b,0x00,0x6f,0x3b,0x0a,0x07,0x3b,0x0b,0x69,0x06,0x3b,0x0c,0x5b,0x00,0x6f,0x3b,0x0a,0x07,0x3b,0x0b,0x69,0x16,0x3b,0x0c,0x5b,0x00,0x6f,0x3b,0x0a,0x07,0x3b,0x0b,0x69,0x00,0x3b,0x0c,0x5b,0x00))
  Wait(60)
  205(34,bytes(0x04,0x08,0x6f,0x3a,0x13,0x52,0x50,0x47,0x3a,0x3a,0x4d,0x6f,0x76,0x65,0x52,0x6f,0x75,0x74,0x65,0x09,0x3a,0x0c,0x40,0x72,0x65,0x70,0x65,0x61,0x74,0x46,0x3a,0x0f,0x40,0x73,0x6b,0x69,0x70,0x70,0x61,0x62,0x6c,0x65,0x54,0x3a,0x0a,0x40,0x77,0x61,0x69,0x74,0x46,0x3a,0x0a,0x40,0x6c,0x69,0x73,0x74,0x5b,0x0a,0x6f,0x3a,0x15,0x52,0x50,0x47,0x3a,0x3a,0x4d,0x6f,0x76,0x65,0x43,0x6f,0x6d,0x6d,0x61,0x6e,0x64,0x07,0x3a,0x0a,0x40,0x63,0x6f,0x64,0x65,0x69,0x09,0x3a,0x10,0x40,0x70,0x61,0x72,0x61,0x6d,0x65,0x74,0x65,0x72,0x73,0x5b,0x00,0x6f,0x3b,0x0a,0x07,0x3b,0x0b,0x69,0x09,0x3b,0x0c,0x5b,0x00,0x6f,0x3b,0x0a,0x07,0x3b,0x0b,0x69,0x09,0x3b,0x0c,0x5b,0x00,0x6f,0x3b,0x0a,0x07,0x3b,0x0b,0x69,0x16,0x3b,0x0c,0x5b,0x00,0x6f,0x3b,0x0a,0x07,0x3b,0x0b,0x69,0x00,0x3b,0x0c,0x5b,0x00))
  ShowMessageFace("kunoitielf2_fc2",1,0,2,4)
  ShowMessage("\\n<Elf Aide>The princess says \"I am honored to meet you\"")
  ShowMessageFace("ruka_fc1",0,0,2,5)
  ShowMessage("\\n<Luka>Y-yeah... Thank you...")
  If(0,4,0)
   ShowMessageFace("alice_fc5",5,0,2,6)
   ShowMessage("\\n<Alice>Why doesn't she come out from behind the folding screen?")
   0()
  EndIf()
  If(0,5,0)
   ShowMessageFace("iriasu_fc4",2,0,2,7)
   ShowMessage("\\n<Ilias>Why is she not coming out from behind the folding screen...?")
   0()
  EndIf()
  ShowMessageFace("elfhime_fc1",0,0,2,8)
  ShowMessage("\\n<Elf Princess>......")
  ChangeVariable(11,11,0,3,5,34,1)
  If(1,11,0,29,5)
   TeleportEvent(34,0,46,29,4)
   0()
  EndIf()
  205(34,bytes(0x04,0x08,0x6f,0x3a,0x13,0x52,0x50,0x47,0x3a,0x3a,0x4d,0x6f,0x76,0x65,0x52,0x6f,0x75,0x74,0x65,0x09,0x3a,0x0c,0x40,0x72,0x65,0x70,0x65,0x61,0x74,0x46,0x3a,0x0f,0x40,0x73,0x6b,0x69,0x70,0x70,0x61,0x62,0x6c,0x65,0x46,0x3a,0x0a,0x40,0x77,0x61,0x69,0x74,0x54,0x3a,0x0a,0x40,0x6c,0x69,0x73,0x74,0x5b,0x0a,0x6f,0x3a,0x15,0x52,0x50,0x47,0x3a,0x3a,0x4d,0x6f,0x76,0x65,0x43,0x6f,0x6d,0x6d,0x61,0x6e,0x64,0x07,0x3a,0x0a,0x40,0x63,0x6f,0x64,0x65,0x69,0x06,0x3a,0x10,0x40,0x70,0x61,0x72,0x61,0x6d,0x65,0x74,0x65,0x72,0x73,0x5b,0x00,0x6f,0x3b,0x0a,0x07,0x3b,0x0b,0x69,0x06,0x3b,0x0c,0x5b,0x00,0x6f,0x3b,0x0a,0x07,0x3b,0x0b,0x69,0x06,0x3b,0x0c,0x5b,0x00,0x6f,0x3b,0x0a,0x07,0x3b,0x0b,0x69,0x16,0x3b,0x0c,0x5b,0x00,0x6f,0x3b,0x0a,0x07,0x3b,0x0b,0x69,0x00,0x3b,0x0c,0x5b,0x00))
  Wait(60)
  205(34,bytes(0x04,0x08,0x6f,0x3a,0x13,0x52,0x50,0x47,0x3a,0x3a,0x4d,0x6f,0x76,0x65,0x52,0x6f,0x75,0x74,0x65,0x09,0x3a,0x0c,0x40,0x72,0x65,0x70,0x65,0x61,0x74,0x46,0x3a,0x0f,0x40,0x73,0x6b,0x69,0x70,0x70,0x61,0x62,0x6c,0x65,0x54,0x3a,0x0a,0x40,0x77,0x61,0x69,0x74,0x46,0x3a,0x0a,0x40,0x6c,0x69,0x73,0x74,0x5b,0x0a,0x6f,0x3a,0x15,0x52,0x50,0x47,0x3a,0x3a,0x4d,0x6f,0x76,0x65,0x43,0x6f,0x6d,0x6d,0x61,0x6e,0x64,0x07,0x3a,0x0a,0x40,0x63,0x6f,0x64,0x65,0x69,0x09,0x3a,0x10,0x40,0x70,0x61,0x72,0x61,0x6d,0x65,0x74,0x65,0x72,0x73,0x5b,0x00,0x6f,0x3b,0x0a,0x07,0x3b,0x0b,0x69,0x09,0x3b,0x0c,0x5b,0x00,0x6f,0x3b,0x0a,0x07,0x3b,0x0b,0x69,0x09,0x3b,0x0c,0x5b,0x00,0x6f,0x3b,0x0a,0x07,0x3b,0x0b,0x69,0x16,0x3b,0x0c,0x5b,0x00,0x6f,0x3b,0x0a,0x07,0x3b,0x0b,0x69,0x00,0x3b,0x0c,0x5b,0x00))
  ShowMessageFace("kunoitielf2_fc2",1,0,2,9)
  ShowMessage("\\n<Elf Aide>The princess says \"I like you very much\".")
  ShowMessageFace("ruka_fc1",0,0,2,10)
  ShowMessage("\\n<Luka>That's... I'm honored...")
  ShowMessageFace("elfhime_fc1",0,0,2,11)
  ShowMessage("\\n<Elf Princess>......")
  ChangeVariable(11,11,0,3,5,34,1)
  If(1,11,0,29,5)
   TeleportEvent(34,0,46,29,4)
   0()
  EndIf()
  205(34,bytes(0x04,0x08,0x6f,0x3a,0x13,0x52,0x50,0x47,0x3a,0x3a,0x4d,0x6f,0x76,0x65,0x52,0x6f,0x75,0x74,0x65,0x09,0x3a,0x0c,0x40,0x72,0x65,0x70,0x65,0x61,0x74,0x46,0x3a,0x0f,0x40,0x73,0x6b,0x69,0x70,0x70,0x61,0x62,0x6c,0x65,0x46,0x3a,0x0a,0x40,0x77,0x61,0x69,0x74,0x54,0x3a,0x0a,0x40,0x6c,0x69,0x73,0x74,0x5b,0x0a,0x6f,0x3a,0x15,0x52,0x50,0x47,0x3a,0x3a,0x4d,0x6f,0x76,0x65,0x43,0x6f,0x6d,0x6d,0x61,0x6e,0x64,0x07,0x3a,0x0a,0x40,0x63,0x6f,0x64,0x65,0x69,0x06,0x3a,0x10,0x40,0x70,0x61,0x72,0x61,0x6d,0x65,0x74,0x65,0x72,0x73,0x5b,0x00,0x6f,0x3b,0x0a,0x07,0x3b,0x0b,0x69,0x06,0x3b,0x0c,0x5b,0x00,0x6f,0x3b,0x0a,0x07,0x3b,0x0b,0x69,0x06,0x3b,0x0c,0x5b,0x00,0x6f,0x3b,0x0a,0x07,0x3b,0x0b,0x69,0x16,0x3b,0x0c,0x5b,0x00,0x6f,0x3b,0x0a,0x07,0x3b,0x0b,0x69,0x00,0x3b,0x0c,0x5b,0x00))
  Wait(60)
  205(34,bytes(0x04,0x08,0x6f,0x3a,0x13,0x52,0x50,0x47,0x3a,0x3a,0x4d,0x6f,0x76,0x65,0x52,0x6f,0x75,0x74,0x65,0x09,0x3a,0x0c,0x40,0x72,0x65,0x70,0x65,0x61,0x74,0x46,0x3a,0x0f,0x40,0x73,0x6b,0x69,0x70,0x70,0x61,0x62,0x6c,0x65,0x54,0x3a,0x0a,0x40,0x77,0x61,0x69,0x74,0x46,0x3a,0x0a,0x40,0x6c,0x69,0x73,0x74,0x5b,0x0a,0x6f,0x3a,0x15,0x52,0x50,0x47,0x3a,0x3a,0x4d,0x6f,0x76,0x65,0x43,0x6f,0x6d,0x6d,0x61,0x6e,0x64,0x07,0x3a,0x0a,0x40,0x63,0x6f,0x64,0x65,0x69,0x09,0x3a,0x10,0x40,0x70,0x61,0x72,0x61,0x6d,0x65,0x74,0x65,0x72,0x73,0x5b,0x00,0x6f,0x3b,0x0a,0x07,0x3b,0x0b,0x69,0x09,0x3b,0x0c,0x5b,0x00,0x6f,0x3b,0x0a,0x07,0x3b,0x0b,0x69,0x09,0x3b,0x0c,0x5b,0x00,0x6f,0x3b,0x0a,0x07,0x3b,0x0b,0x69,0x16,0x3b,0x0c,0x5b,0x00,0x6f,0x3b,0x0a,0x07,0x3b,0x0b,0x69,0x00,0x3b,0x0c,0x5b,0x00))
  ShowMessageFace("kunoitielf2_fc2",1,0,2,12)
  ShowMessage("\\n<Elf Aide>The princess says \"Please accept this as proof of our acquaintance.\"")
  250(bytes(0x04,0x08,0x6f,0x3a,0x0c,0x52,0x50,0x47,0x3a,0x3a,0x53,0x45,0x08,0x3a,0x0a,0x40,0x6e,0x61,0x6d,0x65,0x49,0x22,0x0a,0x49,0x74,0x65,0x6d,0x31,0x06,0x3a,0x06,0x45,0x54,0x3a,0x0b,0x40,0x70,0x69,0x74,0x63,0x68,0x69,0x69,0x3a,0x0c,0x40,0x76,0x6f,0x6c,0x75,0x6d,0x65,0x69,0x55))
  ChangeInventory_Item(537,0,0,1)
  If(0,6,0)
   ShowMessageFace("sonia_fc2",2,0,2,13)
   ShowMessage("\\n<Sonya>Wait a minute, she's giving it to us that easily...?")
   0()
  Else()
   ShowMessageFace("ruka_fc1",0,0,2,14)
   ShowMessage("\\n<Luka>You're letting me have this that easily...?")
   0()
  EndIf()
  ChangeVariable(11,11,0,3,5,34,1)
  If(1,11,0,29,5)
   TeleportEvent(34,0,46,29,4)
   0()
  EndIf()
  205(34,bytes(0x04,0x08,0x6f,0x3a,0x13,0x52,0x50,0x47,0x3a,0x3a,0x4d,0x6f,0x76,0x65,0x52,0x6f,0x75,0x74,0x65,0x09,0x3a,0x0c,0x40,0x72,0x65,0x70,0x65,0x61,0x74,0x46,0x3a,0x0f,0x40,0x73,0x6b,0x69,0x70,0x70,0x61,0x62,0x6c,0x65,0x46,0x3a,0x0a,0x40,0x77,0x61,0x69,0x74,0x54,0x3a,0x0a,0x40,0x6c,0x69,0x73,0x74,0x5b,0x0a,0x6f,0x3a,0x15,0x52,0x50,0x47,0x3a,0x3a,0x4d,0x6f,0x76,0x65,0x43,0x6f,0x6d,0x6d,0x61,0x6e,0x64,0x07,0x3a,0x0a,0x40,0x63,0x6f,0x64,0x65,0x69,0x06,0x3a,0x10,0x40,0x70,0x61,0x72,0x61,0x6d,0x65,0x74,0x65,0x72,0x73,0x5b,0x00,0x6f,0x3b,0x0a,0x07,0x3b,0x0b,0x69,0x06,0x3b,0x0c,0x5b,0x00,0x6f,0x3b,0x0a,0x07,0x3b,0x0b,0x69,0x06,0x3b,0x0c,0x5b,0x00,0x6f,0x3b,0x0a,0x07,0x3b,0x0b,0x69,0x16,0x3b,0x0c,0x5b,0x00,0x6f,0x3b,0x0a,0x07,0x3b,0x0b,0x69,0x00,0x3b,0x0c,0x5b,0x00))
  Wait(60)
  205(34,bytes(0x04,0x08,0x6f,0x3a,0x13,0x52,0x50,0x47,0x3a,0x3a,0x4d,0x6f,0x76,0x65,0x52,0x6f,0x75,0x74,0x65,0x09,0x3a,0x0c,0x40,0x72,0x65,0x70,0x65,0x61,0x74,0x46,0x3a,0x0f,0x40,0x73,0x6b,0x69,0x70,0x70,0x61,0x62,0x6c,0x65,0x54,0x3a,0x0a,0x40,0x77,0x61,0x69,0x74,0x46,0x3a,0x0a,0x40,0x6c,0x69,0x73,0x74,0x5b,0x0a,0x6f,0x3a,0x15,0x52,0x50,0x47,0x3a,0x3a,0x4d,0x6f,0x76,0x65,0x43,0x6f,0x6d,0x6d,0x61,0x6e,0x64,0x07,0x3a,0x0a,0x40,0x63,0x6f,0x64,0x65,0x69,0x09,0x3a,0x10,0x40,0x70,0x61,0x72,0x61,0x6d,0x65,0x74,0x65,0x72,0x73,0x5b,0x00,0x6f,0x3b,0x0a,0x07,0x3b,0x0b,0x69,0x09,0x3b,0x0c,0x5b,0x00,0x6f,0x3b,0x0a,0x07,0x3b,0x0b,0x69,0x09,0x3b,0x0c,0x5b,0x00,0x6f,0x3b,0x0a,0x07,0x3b,0x0b,0x69,0x16,0x3b,0x0c,0x5b,0x00,0x6f,0x3b,0x0a,0x07,0x3b,0x0b,0x69,0x00,0x3b,0x0c,0x5b,0x00))
  ShowMessageFace("kunoitielf2_fc2",1,0,2,15)
  ShowMessage("\\n<Elf Aide>The princess also wishes to give you this, a treasure that has been passed down through generations within our village.")
  ShowMessageFace("kunoitielf2_fc2",1,0,2,16)
  ShowMessage("\\n<Elf Aide>It is called Mugen, a famous katana that is counted among the seven legendary blades. Please, take it.")
  250(bytes(0x04,0x08,0x6f,0x3a,0x0c,0x52,0x50,0x47,0x3a,0x3a,0x53,0x45,0x08,0x3a,0x0a,0x40,0x6e,0x61,0x6d,0x65,0x49,0x22,0x0a,0x49,0x74,0x65,0x6d,0x31,0x06,0x3a,0x06,0x45,0x54,0x3a,0x0b,0x40,0x70,0x69,0x74,0x63,0x68,0x69,0x69,0x3a,0x0c,0x40,0x76,0x6f,0x6c,0x75,0x6d,0x65,0x69,0x55))
  ChangeInventoryWeapon(255,0,0,1,false)
  If(0,6,0)
   ShowMessageFace("sonia_fc2",3,0,2,17)
   ShowMessage("\\n<Sonya>Eh? On second thought, is this really okay...?")
   0()
  Else()
   ShowMessageFace("ruka_fc1",0,0,2,18)
   ShowMessage("\\n<Luka>This is too much to receive...")
   0()
  EndIf()
  ChangeVariable(11,11,0,3,5,34,1)
  If(1,11,0,29,5)
   TeleportEvent(34,0,46,29,4)
   0()
  EndIf()
  205(34,bytes(0x04,0x08,0x6f,0x3a,0x13,0x52,0x50,0x47,0x3a,0x3a,0x4d,0x6f,0x76,0x65,0x52,0x6f,0x75,0x74,0x65,0x09,0x3a,0x0c,0x40,0x72,0x65,0x70,0x65,0x61,0x74,0x46,0x3a,0x0f,0x40,0x73,0x6b,0x69,0x70,0x70,0x61,0x62,0x6c,0x65,0x46,0x3a,0x0a,0x40,0x77,0x61,0x69,0x74,0x54,0x3a,0x0a,0x40,0x6c,0x69,0x73,0x74,0x5b,0x0a,0x6f,0x3a,0x15,0x52,0x50,0x47,0x3a,0x3a,0x4d,0x6f,0x76,0x65,0x43,0x6f,0x6d,0x6d,0x61,0x6e,0x64,0x07,0x3a,0x0a,0x40,0x63,0x6f,0x64,0x65,0x69,0x06,0x3a,0x10,0x40,0x70,0x61,0x72,0x61,0x6d,0x65,0x74,0x65,0x72,0x73,0x5b,0x00,0x6f,0x3b,0x0a,0x07,0x3b,0x0b,0x69,0x06,0x3b,0x0c,0x5b,0x00,0x6f,0x3b,0x0a,0x07,0x3b,0x0b,0x69,0x06,0x3b,0x0c,0x5b,0x00,0x6f,0x3b,0x0a,0x07,0x3b,0x0b,0x69,0x16,0x3b,0x0c,0x5b,0x00,0x6f,0x3b,0x0a,0x07,0x3b,0x0b,0x69,0x00,0x3b,0x0c,0x5b,0x00))
  Wait(60)
  205(34,bytes(0x04,0x08,0x6f,0x3a,0x13,0x52,0x50,0x47,0x3a,0x3a,0x4d,0x6f,0x76,0x65,0x52,0x6f,0x75,0x74,0x65,0x09,0x3a,0x0c,0x40,0x72,0x65,0x70,0x65,0x61,0x74,0x46,0x3a,0x0f,0x40,0x73,0x6b,0x69,0x70,0x70,0x61,0x62,0x6c,0x65,0x54,0x3a,0x0a,0x40,0x77,0x61,0x69,0x74,0x46,0x3a,0x0a,0x40,0x6c,0x69,0x73,0x74,0x5b,0x0a,0x6f,0x3a,0x15,0x52,0x50,0x47,0x3a,0x3a,0x4d,0x6f,0x76,0x65,0x43,0x6f,0x6d,0x6d,0x61,0x6e,0x64,0x07,0x3a,0x0a,0x40,0x63,0x6f,0x64,0x65,0x69,0x09,0x3a,0x10,0x40,0x70,0x61,0x72,0x61,0x6d,0x65,0x74,0x65,0x72,0x73,0x5b,0x00,0x6f,0x3b,0x0a,0x07,0x3b,0x0b,0x69,0x09,0x3b,0x0c,0x5b,0x00,0x6f,0x3b,0x0a,0x07,0x3b,0x0b,0x69,0x09,0x3b,0x0c,0x5b,0x00,0x6f,0x3b,0x0a,0x07,0x3b,0x0b,0x69,0x16,0x3b,0x0c,0x5b,0x00,0x6f,0x3b,0x0a,0x07,0x3b,0x0b,0x69,0x00,0x3b,0x0c,0x5b,0x00))
  ShowMessageFace("kunoitielf2_fc2",1,0,2,19)
  ShowMessage("\\n<Elf Aide>She would also like to present her beloved with another precious item. With this, you can take up advanced jobs from the Hunter line.")
  250(bytes(0x04,0x08,0x6f,0x3a,0x0c,0x52,0x50,0x47,0x3a,0x3a,0x53,0x45,0x08,0x3a,0x0a,0x40,0x6e,0x61,0x6d,0x65,0x49,0x22,0x0a,0x49,0x74,0x65,0x6d,0x31,0x06,0x3a,0x06,0x45,0x54,0x3a,0x0b,0x40,0x70,0x69,0x74,0x63,0x68,0x69,0x69,0x3a,0x0c,0x40,0x76,0x6f,0x6c,0x75,0x6d,0x65,0x69,0x55))
  ChangeSwitch(2311,2311,0)
  ChangeInventory_Item(627,0,0,1)
  If(0,6,0)
   ShowMessageFace("sonia_fc3",2,0,2,20)
   ShowMessage("\\n<Sonya>W-wait a second...!")
   0()
  Else()
   ShowMessageFace("ruka_fc1",0,0,2,21)
   ShowMessage("\\n<Luka>W-wait a second...!")
   0()
  EndIf()
  ShowMessageFace("elfhime_fc1",0,0,2,22)
  ShowMessage("\\n<Elf Princess>......")
  ChangeVariable(11,11,0,3,5,34,1)
  If(1,11,0,29,5)
   TeleportEvent(34,0,46,29,4)
   0()
  EndIf()
  205(34,bytes(0x04,0x08,0x6f,0x3a,0x13,0x52,0x50,0x47,0x3a,0x3a,0x4d,0x6f,0x76,0x65,0x52,0x6f,0x75,0x74,0x65,0x09,0x3a,0x0c,0x40,0x72,0x65,0x70,0x65,0x61,0x74,0x46,0x3a,0x0f,0x40,0x73,0x6b,0x69,0x70,0x70,0x61,0x62,0x6c,0x65,0x46,0x3a,0x0a,0x40,0x77,0x61,0x69,0x74,0x54,0x3a,0x0a,0x40,0x6c,0x69,0x73,0x74,0x5b,0x0a,0x6f,0x3a,0x15,0x52,0x50,0x47,0x3a,0x3a,0x4d,0x6f,0x76,0x65,0x43,0x6f,0x6d,0x6d,0x61,0x6e,0x64,0x07,0x3a,0x0a,0x40,0x63,0x6f,0x64,0x65,0x69,0x06,0x3a,0x10,0x40,0x70,0x61,0x72,0x61,0x6d,0x65,0x74,0x65,0x72,0x73,0x5b,0x00,0x6f,0x3b,0x0a,0x07,0x3b,0x0b,0x69,0x06,0x3b,0x0c,0x5b,0x00,0x6f,0x3b,0x0a,0x07,0x3b,0x0b,0x69,0x06,0x3b,0x0c,0x5b,0x00,0x6f,0x3b,0x0a,0x07,0x3b,0x0b,0x69,0x16,0x3b,0x0c,0x5b,0x00,0x6f,0x3b,0x0a,0x07,0x3b,0x0b,0x69,0x00,0x3b,0x0c,0x5b,0x00))
  Wait(60)
  205(34,bytes(0x04,0x08,0x6f,0x3a,0x13,0x52,0x50,0x47,0x3a,0x3a,0x4d,0x6f,0x76,0x65,0x52,0x6f,0x75,0x74,0x65,0x09,0x3a,0x0c,0x40,0x72,0x65,0x70,0x65,0x61,0x74,0x46,0x3a,0x0f,0x40,0x73,0x6b,0x69,0x70,0x70,0x61,0x62,0x6c,0x65,0x54,0x3a,0x0a,0x40,0x77,0x61,0x69,0x74,0x46,0x3a,0x0a,0x40,0x6c,0x69,0x73,0x74,0x5b,0x0a,0x6f,0x3a,0x15,0x52,0x50,0x47,0x3a,0x3a,0x4d,0x6f,0x76,0x65,0x43,0x6f,0x6d,0x6d,0x61,0x6e,0x64,0x07,0x3a,0x0a,0x40,0x63,0x6f,0x64,0x65,0x69,0x09,0x3a,0x10,0x40,0x70,0x61,0x72,0x61,0x6d,0x65,0x74,0x65,0x72,0x73,0x5b,0x00,0x6f,0x3b,0x0a,0x07,0x3b,0x0b,0x69,0x09,0x3b,0x0c,0x5b,0x00,0x6f,0x3b,0x0a,0x07,0x3b,0x0b,0x69,0x09,0x3b,0x0c,0x5b,0x00,0x6f,0x3b,0x0a,0x07,0x3b,0x0b,0x69,0x16,0x3b,0x0c,0x5b,0x00,0x6f,0x3b,0x0a,0x07,0x3b,0x0b,0x69,0x00,0x3b,0x0c,0x5b,0x00))
  ShowMessageFace("kunoitielf2_fc2",1,0,2,23)
  ShowMessage("\\n<Elf Aide>In addition, the princess wants to send you off with the following items. They will prove useful on your journey...is what I've been told.")
  250(bytes(0x04,0x08,0x6f,0x3a,0x0c,0x52,0x50,0x47,0x3a,0x3a,0x53,0x45,0x08,0x3a,0x0a,0x40,0x6e,0x61,0x6d,0x65,0x49,0x22,0x0a,0x49,0x74,0x65,0x6d,0x31,0x06,0x3a,0x06,0x45,0x54,0x3a,0x0b,0x40,0x70,0x69,0x74,0x63,0x68,0x69,0x69,0x3a,0x0c,0x40,0x76,0x6f,0x6c,0x75,0x6d,0x65,0x69,0x55))
  ChangeInventoryWeapon(274,0,0,1)
  ChangeInventoryWeapon(744,0,0,1,false)
  ChangeInventoryArmor(140,0,0,1,false)
  ChangeInventoryArmor(268,0,0,1,false)
  ChangeInventoryArmor(1295,0,0,1,false)
  ChangeInventoryArmor(1298,0,0,1)
  If(0,6,0)
   ShowMessageFace("sonia_fc3",2,0,2,24)
   ShowMessage("\\n<Sonya>This is dangerous! Absolutely dangerous!")
   0()
  Else()
   ShowMessageFace("ruka_fc1",0,0,2,25)
   ShowMessage("\\n<Luka>If I accept this much, it's going to be a problem...!")
   0()
  EndIf()
  If(0,4,0)
   ShowMessageFace("alice_fc5",6,0,2,26)
   ShowMessage("\\n<Alice>Hold on, wait, wait!\nThis is clearly some overbearing affection!")
   0()
  EndIf()
  If(0,5,0)
   ShowMessageFace("iriasu_fc4",5,0,2,27)
   ShowMessage("\\n<Ilias>Hold on just a moment!\nThis is some weighty affection!")
   0()
  EndIf()
  ShowMessageFace("elfhime_fc1",0,0,2,28)
  ShowMessage("\\n<Elf Princess>......")
  ChangeVariable(11,11,0,3,5,34,1)
  If(1,11,0,29,5)
   TeleportEvent(34,0,46,29,4)
   0()
  EndIf()
  205(34,bytes(0x04,0x08,0x6f,0x3a,0x13,0x52,0x50,0x47,0x3a,0x3a,0x4d,0x6f,0x76,0x65,0x52,0x6f,0x75,0x74,0x65,0x09,0x3a,0x0c,0x40,0x72,0x65,0x70,0x65,0x61,0x74,0x46,0x3a,0x0f,0x40,0x73,0x6b,0x69,0x70,0x70,0x61,0x62,0x6c,0x65,0x46,0x3a,0x0a,0x40,0x77,0x61,0x69,0x74,0x54,0x3a,0x0a,0x40,0x6c,0x69,0x73,0x74,0x5b,0x0a,0x6f,0x3a,0x15,0x52,0x50,0x47,0x3a,0x3a,0x4d,0x6f,0x76,0x65,0x43,0x6f,0x6d,0x6d,0x61,0x6e,0x64,0x07,0x3a,0x0a,0x40,0x63,0x6f,0x64,0x65,0x69,0x06,0x3a,0x10,0x40,0x70,0x61,0x72,0x61,0x6d,0x65,0x74,0x65,0x72,0x73,0x5b,0x00,0x6f,0x3b,0x0a,0x07,0x3b,0x0b,0x69,0x06,0x3b,0x0c,0x5b,0x00,0x6f,0x3b,0x0a,0x07,0x3b,0x0b,0x69,0x06,0x3b,0x0c,0x5b,0x00,0x6f,0x3b,0x0a,0x07,0x3b,0x0b,0x69,0x16,0x3b,0x0c,0x5b,0x00,0x6f,0x3b,0x0a,0x07,0x3b,0x0b,0x69,0x00,0x3b,0x0c,0x5b,0x00))
  Wait(60)
  205(34,bytes(0x04,0x08,0x6f,0x3a,0x13,0x52,0x50,0x47,0x3a,0x3a,0x4d,0x6f,0x76,0x65,0x52,0x6f,0x75,0x74,0x65,0x09,0x3a,0x0c,0x40,0x72,0x65,0x70,0x65,0x61,0x74,0x46,0x3a,0x0f,0x40,0x73,0x6b,0x69,0x70,0x70,0x61,0x62,0x6c,0x65,0x54,0x3a,0x0a,0x40,0x77,0x61,0x69,0x74,0x46,0x3a,0x0a,0x40,0x6c,0x69,0x73,0x74,0x5b,0x0a,0x6f,0x3a,0x15,0x52,0x50,0x47,0x3a,0x3a,0x4d,0x6f,0x76,0x65,0x43,0x6f,0x6d,0x6d,0x61,0x6e,0x64,0x07,0x3a,0x0a,0x40,0x63,0x6f,0x64,0x65,0x69,0x09,0x3a,0x10,0x40,0x70,0x61,0x72,0x61,0x6d,0x65,0x74,0x65,0x72,0x73,0x5b,0x00,0x6f,0x3b,0x0a,0x07,0x3b,0x0b,0x69,0x09,0x3b,0x0c,0x5b,0x00,0x6f,0x3b,0x0a,0x07,0x3b,0x0b,0x69,0x09,0x3b,0x0c,0x5b,0x00,0x6f,0x3b,0x0a,0x07,0x3b,0x0b,0x69,0x16,0x3b,0x0c,0x5b,0x00,0x6f,0x3b,0x0a,0x07,0x3b,0x0b,0x69,0x00,0x3b,0x0c,0x5b,0x00))
  ShowMessageFace("kunoitielf2_fc2",1,0,2,29)
  ShowMessage("\\n<Elf Aide>\"There is no need to be concerned, it is to be expected that one would do everything they can for the sake of their beloved,\" she says.")
  If(0,6,0)
   ShowMessageFace("sonia_fc3",2,0,2,30)
   ShowMessage("\\n<Sonya>This isn't right! This is a serious predicament! Luka, say what you always say when somebody's coming onto you!")
   ShowMessageFace("ruka_fc1",0,0,2,31)
   ShowMessage("\\n<Luka>Well you see, I haven't even gotten time to know you yet... Maybe we should start by exchanging letters first.")
   0()
  Else()
   ShowMessageFace("ruka_fc1",0,0,2,32)
   ShowMessage("\\n<Luka>Well you see, I haven't even gotten time to know you yet... Maybe we should start by exchanging letters first.")
   0()
  EndIf()
  If(0,4,0)
   ShowMessageFace("alice_fc5",5,0,2,33)
   ShowMessage("\\n<Alice>Exchanging letters...?\nWhat human does that in this age, you...")
   0()
  EndIf()
  If(0,5,0)
   ShowMessageFace("iriasu_fc4",2,0,2,34)
   ShowMessage("\\n<Ilias>Exchanging letters...?\nAre you some old-fashioned schoolgirl?")
   0()
  EndIf()
  ShowMessageFace("elfhime_fc1",0,0,2,35)
  ShowMessage("\\n<Elf Princess>......")
  ChangeVariable(11,11,0,3,5,34,1)
  If(1,11,0,29,5)
   TeleportEvent(34,0,46,29,4)
   0()
  EndIf()
  205(34,bytes(0x04,0x08,0x6f,0x3a,0x13,0x52,0x50,0x47,0x3a,0x3a,0x4d,0x6f,0x76,0x65,0x52,0x6f,0x75,0x74,0x65,0x09,0x3a,0x0c,0x40,0x72,0x65,0x70,0x65,0x61,0x74,0x46,0x3a,0x0f,0x40,0x73,0x6b,0x69,0x70,0x70,0x61,0x62,0x6c,0x65,0x46,0x3a,0x0a,0x40,0x77,0x61,0x69,0x74,0x54,0x3a,0x0a,0x40,0x6c,0x69,0x73,0x74,0x5b,0x0a,0x6f,0x3a,0x15,0x52,0x50,0x47,0x3a,0x3a,0x4d,0x6f,0x76,0x65,0x43,0x6f,0x6d,0x6d,0x61,0x6e,0x64,0x07,0x3a,0x0a,0x40,0x63,0x6f,0x64,0x65,0x69,0x06,0x3a,0x10,0x40,0x70,0x61,0x72,0x61,0x6d,0x65,0x74,0x65,0x72,0x73,0x5b,0x00,0x6f,0x3b,0x0a,0x07,0x3b,0x0b,0x69,0x06,0x3b,0x0c,0x5b,0x00,0x6f,0x3b,0x0a,0x07,0x3b,0x0b,0x69,0x06,0x3b,0x0c,0x5b,0x00,0x6f,0x3b,0x0a,0x07,0x3b,0x0b,0x69,0x16,0x3b,0x0c,0x5b,0x00,0x6f,0x3b,0x0a,0x07,0x3b,0x0b,0x69,0x00,0x3b,0x0c,0x5b,0x00))
  Wait(60)
  205(34,bytes(0x04,0x08,0x6f,0x3a,0x13,0x52,0x50,0x47,0x3a,0x3a,0x4d,0x6f,0x76,0x65,0x52,0x6f,0x75,0x74,0x65,0x09,0x3a,0x0c,0x40,0x72,0x65,0x70,0x65,0x61,0x74,0x46,0x3a,0x0f,0x40,0x73,0x6b,0x69,0x70,0x70,0x61,0x62,0x6c,0x65,0x54,0x3a,0x0a,0x40,0x77,0x61,0x69,0x74,0x46,0x3a,0x0a,0x40,0x6c,0x69,0x73,0x74,0x5b,0x0a,0x6f,0x3a,0x15,0x52,0x50,0x47,0x3a,0x3a,0x4d,0x6f,0x76,0x65,0x43,0x6f,0x6d,0x6d,0x61,0x6e,0x64,0x07,0x3a,0x0a,0x40,0x63,0x6f,0x64,0x65,0x69,0x09,0x3a,0x10,0x40,0x70,0x61,0x72,0x61,0x6d,0x65,0x74,0x65,0x72,0x73,0x5b,0x00,0x6f,0x3b,0x0a,0x07,0x3b,0x0b,0x69,0x09,0x3b,0x0c,0x5b,0x00,0x6f,0x3b,0x0a,0x07,0x3b,0x0b,0x69,0x09,0x3b,0x0c,0x5b,0x00,0x6f,0x3b,0x0a,0x07,0x3b,0x0b,0x69,0x16,0x3b,0x0c,0x5b,0x00,0x6f,0x3b,0x0a,0x07,0x3b,0x0b,0x69,0x00,0x3b,0x0c,0x5b,0x00))
  ShowMessageFace("kunoitielf2_fc2",1,0,2,36)
  ShowMessage("\\n<Elf Aide>The princess seems to agree.\n\"Tonight, I will begin writing a letter immediately\", she says.")
  ShowMessageFace("kunoitielf2_fc2",1,0,2,37)
  ShowMessage("\\n<Elf Aide>And regarding the wedding...\nThe princess says \"I'm fine with either a shrine or a church.\"")
  If(0,6,0)
   205(35,bytes(0x04,0x08,0x6f,0x3a,0x13,0x52,0x50,0x47,0x3a,0x3a,0x4d,0x6f,0x76,0x65,0x52,0x6f,0x75,0x74,0x65,0x09,0x3a,0x0c,0x40,0x72,0x65,0x70,0x65,0x61,0x74,0x46,0x3a,0x0f,0x40,0x73,0x6b,0x69,0x70,0x70,0x61,0x62,0x6c,0x65,0x46,0x3a,0x0a,0x40,0x77,0x61,0x69,0x74,0x54,0x3a,0x0a,0x40,0x6c,0x69,0x73,0x74,0x5b,0x12,0x6f,0x3a,0x15,0x52,0x50,0x47,0x3a,0x3a,0x4d,0x6f,0x76,0x65,0x43,0x6f,0x6d,0x6d,0x61,0x6e,0x64,0x07,0x3a,0x0a,0x40,0x63,0x6f,0x64,0x65,0x69,0x22,0x3a,0x10,0x40,0x70,0x61,0x72,0x61,0x6d,0x65,0x74,0x65,0x72,0x73,0x5b,0x06,0x69,0x0b,0x6f,0x3b,0x0a,0x07,0x3b,0x0b,0x69,0x23,0x3b,0x0c,0x5b,0x06,0x69,0x09,0x6f,0x3b,0x0a,0x07,0x3b,0x0b,0x69,0x07,0x3b,0x0c,0x5b,0x00,0x6f,0x3b,0x0a,0x07,0x3b,0x0b,0x69,0x07,0x3b,0x0c,0x5b,0x00,0x6f,0x3b,0x0a,0x07,0x3b,0x0b,0x69,0x09,0x3b,0x0c,0x5b,0x00,0x6f,0x3b,0x0a,0x07,0x3b,0x0b,0x69,0x09,0x3b,0x0c,0x5b,0x00,0x6f,0x3b,0x0a,0x07,0x3b,0x0b,0x69,0x09,0x3b,0x0c,0x5b,0x00,0x6f,0x3b,0x0a,0x07,0x3b,0x0b,0x69,0x08,0x3b,0x0c,0x5b,0x00,0x6f,0x3b,0x0a,0x07,0x3b,0x0b,0x69,0x08,0x3b,0x0c,0x5b,0x00,0x6f,0x3b,0x0a,0x07,0x3b,0x0b,0x69,0x08,0x3b,0x0c,0x5b,0x00,0x6f,0x3b,0x0a,0x07,0x3b,0x0b,0x69,0x08,0x3b,0x0c,0x5b,0x00,0x6f,0x3b,0x0a,0x07,0x3b,0x0b,0x69,0x08,0x3b,0x0c,0x5b,0x00,0x6f,0x3b,0x0a,0x07,0x3b,0x0b,0x69,0x00,0x3b,0x0c,0x5b,0x00))
   205(31,bytes(0x04,0x08,0x6f,0x3a,0x13,0x52,0x50,0x47,0x3a,0x3a,0x4d,0x6f,0x76,0x65,0x52,0x6f,0x75,0x74,0x65,0x09,0x3a,0x0c,0x40,0x72,0x65,0x70,0x65,0x61,0x74,0x46,0x3a,0x0f,0x40,0x73,0x6b,0x69,0x70,0x70,0x61,0x62,0x6c,0x65,0x46,0x3a,0x0a,0x40,0x77,0x61,0x69,0x74,0x54,0x3a,0x0a,0x40,0x6c,0x69,0x73,0x74,0x5b,0x07,0x6f,0x3a,0x15,0x52,0x50,0x47,0x3a,0x3a,0x4d,0x6f,0x76,0x65,0x43,0x6f,0x6d,0x6d,0x61,0x6e,0x64,0x07,0x3a,0x0a,0x40,0x63,0x6f,0x64,0x65,0x69,0x16,0x3a,0x10,0x40,0x70,0x61,0x72,0x61,0x6d,0x65,0x74,0x65,0x72,0x73,0x5b,0x00,0x6f,0x3b,0x0a,0x07,0x3b,0x0b,0x69,0x00,0x3b,0x0c,0x5b,0x00))
   ShowSpeechBalloon(31,1,false)
   ShowMessageFace("sonia_fc2",5,0,2,38)
   ShowMessage("\\n<Sonya>Luka says \"A woman who doesn't understand personal space is a pain in the ass!!\"")
   Wait(60)
   PictureDisplay(5,"80_elfhime_st03",0,0,0,0,100,100,0,0)
   PictureMove(5,null,0,0,0,0,100,100,255,0,60,true)
   ShowMessageFace("elfhime_fc1",2,0,2,39)
   ShowMessage("\\n<Elf Princess>......")
   ShowMessageFace("elfhime_fc1",2,0,2,40)
   ShowMessage("\\n<Elf Princess>Who is this uncivilized...girl...?")
   ShowMessageFace("sonia_fc2",6,0,2,41)
   ShowMessage("\\n<Sonya>GAAAAAAHH!!")
   0()
  Else()
   ShowMessageFace("ruka_fc1",0,0,2,42)
   ShowMessage("\\n<Luka>......")
   0()
  EndIf()
  PictureClear(5)
  Wait(60)
  221()
  241(bytes(0x04,0x08,0x6f,0x3a,0x0d,0x52,0x50,0x47,0x3a,0x3a,0x42,0x47,0x4d,0x08,0x3a,0x0a,0x40,0x6e,0x61,0x6d,0x65,0x49,0x22,0x0c,0x62,0x61,0x74,0x74,0x6c,0x65,0x32,0x06,0x3a,0x06,0x45,0x54,0x3a,0x0c,0x40,0x76,0x6f,0x6c,0x75,0x6d,0x65,0x69,0x69,0x3a,0x0b,0x40,0x70,0x69,0x74,0x63,0x68,0x69,0x69))
  Wait(120)
  ShowMessageFace("",0,0,2,43)
  ShowMessage("The meeting with the Elf Princess proceeded smoothly...")
  216(0)
  ChangeVariable(1081,1081,0,0,4)
  ChangeSwitch(31,31,1)
  Wait(60)
  241(bytes(0x04,0x08,0x6f,0x3a,0x0d,0x52,0x50,0x47,0x3a,0x3a,0x42,0x47,0x4d,0x08,0x3a,0x0a,0x40,0x6e,0x61,0x6d,0x65,0x49,0x22,0x14,0x73,0x63,0x65,0x6e,0x65,0x5f,0x65,0x70,0x69,0x6c,0x6f,0x67,0x75,0x65,0x32,0x06,0x3a,0x06,0x45,0x54,0x3a,0x0c,0x40,0x76,0x6f,0x6c,0x75,0x6d,0x65,0x69,0x69,0x3a,0x0b,0x40,0x70,0x69,0x74,0x63,0x68,0x69,0x69))
  222()
  355("gain_medal(58)")
  If(0,4,0)
   ShowMessageFace("alice_fc5",0,0,2,44)
   ShowMessage("\\n<Alice>Well, in any case...\nThings got a little complicated, but we've obtained the Red Orb without any issues.")
   0()
  EndIf()
  If(0,5,0)
   ShowMessageFace("iriasu_fc4",0,0,2,45)
   ShowMessage("\\n<Ilias>Well, in any case...\nThings may have gotten a little complicated, but we have now safely obtained the Red Orb.")
   0()
  EndIf()
  If(0,6,0)
   ShowMessageFace("ruka_fc1",0,0,2,46)
   ShowMessage("\\n<Luka>Are you all right, Sonya...?")
   ShowMessageFace("sonia_fc3",3,0,2,47)
   ShowMessage("\\n<Sonya>I'm impressed with myself for being able to hold my ground in a fight against so many top-ranking elves...")
   If(0,4,0)
    ShowMessageFace("alice_fc5",0,0,2,48)
    ShowMessage("\\n<Alice>You did well.\nThe other side received much greater damage than I expected...")
    0()
   EndIf()
   If(0,5,0)
    ShowMessageFace("iriasu_fc4",2,0,2,49)
    ShowMessage("\\n<Ilias>That was a wonderful struggle.\nThe other side received far greater damage than I would've imagined.")
    0()
   EndIf()
   0()
  Else()
   ShowMessageFace("ruka_fc1",0,0,2,50)
   ShowMessage("\\n<Luka>In many ways, it was a lot of work...")
   0()
  EndIf()
  If(0,4,0)
   ShowMessageFace("alice_fc5",1,0,2,51)
   ShowMessage("\\n<Alice>Merchants and blacksmiths have been dispatched to the shrine as a favor of the Elf Princess. They seem to be dealing in quality products, so they'll be extremely helpful.")
   0()
  EndIf()
  If(0,5,0)
   ShowMessageFace("iriasu_fc4",0,0,2,52)
   ShowMessage("\\n<Ilias>The princess has dispatched merchants and blacksmiths to this shrine as a favor to us. They appear to deal in quality products, so they should prove extremely helpful.")
   0()
  EndIf()
  If(0,6,0)
   ShowMessageFace("sonia_fc3",3,0,2,53)
   ShowMessage("\\n<Sonya>Wow, great...")
   ShowMessageFace("ruka_fc1",0,0,2,54)
   ShowMessage("\\n<Luka>......")
   0()
  EndIf()
  RunCommonEvent(330)
  241(bytes(0x04,0x08,0x6f,0x3a,0x0d,0x52,0x50,0x47,0x3a,0x3a,0x42,0x47,0x4d,0x08,0x3a,0x0a,0x40,0x6e,0x61,0x6d,0x65,0x49,0x22,0x0a,0x6d,0x75,0x72,0x61,0x37,0x06,0x3a,0x06,0x45,0x54,0x3a,0x0c,0x40,0x76,0x6f,0x6c,0x75,0x6d,0x65,0x69,0x69,0x3a,0x0b,0x40,0x70,0x69,0x74,0x63,0x68,0x69,0x69))
  EndEventProcessing()
  0()
 PAGE   2
  // condition: variable 1081 >= 4
  0()

EVENT   3
 PAGE   1
  281(1)
  250(bytes(0x04,0x08,0x6f,0x3a,0x0c,0x52,0x50,0x47,0x3a,0x3a,0x53,0x45,0x08,0x3a,0x0a,0x40,0x6e,0x61,0x6d,0x65,0x49,0x22,0x09,0x4d,0x6f,0x76,0x65,0x06,0x3a,0x06,0x45,0x54,0x3a,0x0b,0x40,0x70,0x69,0x74,0x63,0x68,0x69,0x69,0x3a,0x0c,0x40,0x76,0x6f,0x6c,0x75,0x6d,0x65,0x69,0x55))
  TeleportPlayer(0,512,42,36,0,0)
  0()



EVENT   4
 PAGE   1
  250(bytes(0x04,0x08,0x6f,0x3a,0x0c,0x52,0x50,0x47,0x3a,0x3a,0x53,0x45,0x08,0x3a,0x0a,0x40,0x6e,0x61,0x6d,0x65,0x49,0x22,0x09,0x4d,0x6f,0x76,0x65,0x06,0x3a,0x06,0x45,0x54,0x3a,0x0b,0x40,0x70,0x69,0x74,0x63,0x68,0x69,0x69,0x3a,0x0c,0x40,0x76,0x6f,0x6c,0x75,0x6d,0x65,0x69,0x55))
  TeleportPlayer(0,513,32,30,0,0)
  0()



EVENT   5
 PAGE   1
  250(bytes(0x04,0x08,0x6f,0x3a,0x0c,0x52,0x50,0x47,0x3a,0x3a,0x53,0x45,0x08,0x3a,0x0a,0x40,0x6e,0x61,0x6d,0x65,0x49,0x22,0x09,0x4d,0x6f,0x76,0x65,0x06,0x3a,0x06,0x45,0x54,0x3a,0x0b,0x40,0x70,0x69,0x74,0x63,0x68,0x69,0x69,0x3a,0x0c,0x40,0x76,0x6f,0x6c,0x75,0x6d,0x65,0x69,0x55))
  TeleportPlayer(0,513,33,30,0,0)
  0()



EVENT   6
 PAGE   1
  If(1,1060,0,0,0)
   If(0,6,0)
    ShowMessageFace("sonia_fc3",7,0,2,1)
    ShowMessage("\\n<Sonya>It looks like everyone's still alive.\nActually, no one looks all that injured.")
    0()
   Else()
    ShowMessageFace("ruka_fc1",0,0,2,2)
    ShowMessage("\\n<Luka>It looks like everyone's still alive.\nActually, no one looks all that injured.")
    0()
   EndIf()
   If(0,4,0)
    ShowMessageFace("alice_fc6",0,0,2,3)
    ShowMessage("\\n<Alice>Did the assailant hold back so as to not kill anyone? And she was still able to overpower them?")
    0()
   EndIf()
   If(0,5,0)
    ShowMessageFace("iriasu_fc4",7,0,2,4)
    ShowMessage("\\n<Ilias>It appears our mystery assailant preferred to avoid needless bloodshed. I did not think anyone so strong existed on earth...")
    0()
   EndIf()
   0()
  EndIf()
  250(bytes(0x04,0x08,0x6f,0x3a,0x0c,0x52,0x50,0x47,0x3a,0x3a,0x53,0x45,0x08,0x3a,0x0a,0x40,0x6e,0x61,0x6d,0x65,0x49,0x22,0x09,0x4d,0x6f,0x76,0x65,0x06,0x3a,0x06,0x45,0x54,0x3a,0x0b,0x40,0x70,0x69,0x74,0x63,0x68,0x69,0x69,0x3a,0x0c,0x40,0x76,0x6f,0x6c,0x75,0x6d,0x65,0x69,0x55))
  TeleportPlayer(0,513,30,8,0,0)
  If(1,1060,0,0,0)
   241(bytes(0x04,0x08,0x6f,0x3a,0x0d,0x52,0x50,0x47,0x3a,0x3a,0x42,0x47,0x4d,0x08,0x3a,0x0a,0x40,0x6e,0x61,0x6d,0x65,0x49,0x22,0x0a,0x6b,0x69,0x6b,0x69,0x32,0x06,0x3a,0x06,0x45,0x54,0x3a,0x0c,0x40,0x76,0x6f,0x6c,0x75,0x6d,0x65,0x69,0x69,0x3a,0x0b,0x40,0x70,0x69,0x74,0x63,0x68,0x69,0x69))
   0()
  EndIf()
  0()



EVENT   7
 PAGE   1
  250(bytes(0x04,0x08,0x6f,0x3a,0x0c,0x52,0x50,0x47,0x3a,0x3a,0x53,0x45,0x08,0x3a,0x0a,0x40,0x6e,0x61,0x6d,0x65,0x49,0x22,0x09,0x4d,0x6f,0x76,0x65,0x06,0x3a,0x06,0x45,0x54,0x3a,0x0b,0x40,0x70,0x69,0x74,0x63,0x68,0x69,0x69,0x3a,0x0c,0x40,0x76,0x6f,0x6c,0x75,0x6d,0x65,0x69,0x55))
  TeleportPlayer(0,513,31,8,0,0)
  0()



EVENT   8
 PAGE   1
  281(1)
  250(bytes(0x04,0x08,0x6f,0x3a,0x0c,0x52,0x50,0x47,0x3a,0x3a,0x53,0x45,0x08,0x3a,0x0a,0x40,0x6e,0x61,0x6d,0x65,0x49,0x22,0x09,0x4d,0x6f,0x76,0x65,0x06,0x3a,0x06,0x45,0x54,0x3a,0x0b,0x40,0x70,0x69,0x74,0x63,0x68,0x69,0x69,0x3a,0x0c,0x40,0x76,0x6f,0x6c,0x75,0x6d,0x65,0x69,0x55))
  TeleportPlayer(0,512,27,15,0,0)
  0()



EVENT   9
 PAGE   1
  281(1)
  250(bytes(0x04,0x08,0x6f,0x3a,0x0c,0x52,0x50,0x47,0x3a,0x3a,0x53,0x45,0x08,0x3a,0x0a,0x40,0x6e,0x61,0x6d,0x65,0x49,0x22,0x09,0x4d,0x6f,0x76,0x65,0x06,0x3a,0x06,0x45,0x54,0x3a,0x0b,0x40,0x70,0x69,0x74,0x63,0x68,0x69,0x69,0x3a,0x0c,0x40,0x76,0x6f,0x6c,0x75,0x6d,0x65,0x69,0x55))
  TeleportPlayer(0,512,28,15,0,0)
  0()



EVENT   10
 PAGE   1
  ShowMessageFace("mikolamia_fc1",2,0,2,1)
  ShowMessage("\\n<Miko Lamia>Ngh... What strength...")
  0()
 PAGE   2
  // condition: variable 1060 >= 2
  0()



EVENT   11
 PAGE   1
  0()
 PAGE   2
  // condition: variable 1060 >= 2
  0()



EVENT   12
 PAGE   1
  ShowMessageFace("yukionna_fc1",2,0,2,1)
  ShowMessage("\\n<Yuki-Onna>It doesn't look like anyone is going to die.\nShe was holding back, and yet still so strong...")
  0()
 PAGE   2
  // condition: variable 1060 >= 2
  0()



EVENT   13
 PAGE   1
  ShowMessageFace("mikolamia_fc1",2,0,2,1)
  ShowMessage("\\n<Miko Lamia>We got our asses kicked...")
  0()
 PAGE   2
  // condition: variable 1060 >= 2
  0()



EVENT   14
 PAGE   1
  ShowMessageFace("kirin_fc1",2,0,2,1)
  ShowMessage("\\n<Kirin>I can't believe anyone that strong could exist...")
  0()
 PAGE   2
  // condition: variable 1060 >= 2
  0()



EVENT   15
 PAGE   1
  ShowMessageFace("kezyorou_fc1",2,0,2,1)
  ShowMessage("\\n<Kejourou>Wh-what even happened...\nI didn't even catch a glimpse of them...")
  0()
 PAGE   2
  // condition: variable 1060 >= 2
  0()



EVENT   16
 PAGE   1
  ShowMessageFace("husuma_fc1",2,0,2,1)
  ShowMessage("\\n<Fusuma>Mmmnngh...")
  0()
 PAGE   2
  // condition: variable 1060 >= 2
  0()



EVENT   17
 PAGE   1
  ShowMessageFace("enenra_fc1",2,0,2,1)
  ShowMessage("\\n<Enenra>Guh, that was awful...\nWell, I'm not terribly hurt, at least.")
  0()
 PAGE   2
  // condition: variable 1060 >= 2
  0()



EVENT   18
 PAGE   1
  ShowMessageFace("zyakotuonna_fc1",2,0,2,1)
  ShowMessage("\\n<Jakotsu-Onna>Such a little girl, but such strength...")
  0()
 PAGE   2
  // condition: variable 1060 >= 2
  0()



EVENT   19
 PAGE   1
  ShowMessageFace("kezyorou_fc1",2,0,2,1)
  ShowMessage("\\n<Kejourou>I'm glad this conspiracy was put to rest...")
  0()
 PAGE   2
  // condition: variable 1060 >= 2
  0()



EVENT   20
 PAGE   1
  0()
 PAGE   2
  // condition: variable 1060 >= 1
  0()



EVENT   21
 PAGE   1
  205(-1,bytes(0x04,0x08,0x6f,0x3a,0x13,0x52,0x50,0x47,0x3a,0x3a,0x4d,0x6f,0x76,0x65,0x52,0x6f,0x75,0x74,0x65,0x09,0x3a,0x0c,0x40,0x72,0x65,0x70,0x65,0x61,0x74,0x46,0x3a,0x0f,0x40,0x73,0x6b,0x69,0x70,0x70,0x61,0x62,0x6c,0x65,0x46,0x3a,0x0a,0x40,0x77,0x61,0x69,0x74,0x54,0x3a,0x0a,0x40,0x6c,0x69,0x73,0x74,0x5b,0x07,0x6f,0x3a,0x15,0x52,0x50,0x47,0x3a,0x3a,0x4d,0x6f,0x76,0x65,0x43,0x6f,0x6d,0x6d,0x61,0x6e,0x64,0x07,0x3a,0x0a,0x40,0x63,0x6f,0x64,0x65,0x69,0x15,0x3a,0x10,0x40,0x70,0x61,0x72,0x61,0x6d,0x65,0x74,0x65,0x72,0x73,0x5b,0x00,0x6f,0x3b,0x0a,0x07,0x3b,0x0b,0x69,0x00,0x3b,0x0c,0x5b,0x00))
  ShowMessageFace("ruka_fc1",0,0,2,1)
  ShowMessage("\\n<Luka>Someone's here!")
  241(bytes(0x04,0x08,0x6f,0x3a,0x0d,0x52,0x50,0x47,0x3a,0x3a,0x42,0x47,0x4d,0x08,0x3a,0x0a,0x40,0x6e,0x61,0x6d,0x65,0x49,0x22,0x0a,0x62,0x6f,0x73,0x73,0x30,0x06,0x3a,0x06,0x45,0x54,0x3a,0x0c,0x40,0x76,0x6f,0x6c,0x75,0x6d,0x65,0x69,0x69,0x3a,0x0b,0x40,0x70,0x69,0x74,0x63,0x68,0x69,0x69))
  PictureDisplay(5,"80_sirohebisama_st03",0,0,0,0,100,100,0,0)
  PictureMove(5,null,0,0,0,0,100,100,255,0,30,true)
  ShowMessageFace("sirohebisama_fc1",2,0,2,2)
  ShowMessage("\\n<Shirohebi>Hsss, my entire army... destroyed.\nJust who the hell...")
  PictureDisplay(5,"80_neris_st01b",0,0,-150,0,100,100,255,0)
  PictureDisplay(6,"80_sirohebisama_st03",0,0,150,0,100,100,255,0)
  ShowMessageFace("neris_fc1",0,0,2,3)
  ShowMessage("\\n<Neris>You haven't heard of me?\nI'm Alipheese the 17th.")
  PictureClear(5)
  PictureClear(6)
  Wait(60)
  205(20,bytes(0x04,0x08,0x6f,0x3a,0x13,0x52,0x50,0x47,0x3a,0x3a,0x4d,0x6f,0x76,0x65,0x52,0x6f,0x75,0x74,0x65,0x09,0x3a,0x0c,0x40,0x72,0x65,0x70,0x65,0x61,0x74,0x46,0x3a,0x0f,0x40,0x73,0x6b,0x69,0x70,0x70,0x61,0x62,0x6c,0x65,0x46,0x3a,0x0a,0x40,0x77,0x61,0x69,0x74,0x54,0x3a,0x0a,0x40,0x6c,0x69,0x73,0x74,0x5b,0x07,0x6f,0x3a,0x15,0x52,0x50,0x47,0x3a,0x3a,0x4d,0x6f,0x76,0x65,0x43,0x6f,0x6d,0x6d,0x61,0x6e,0x64,0x07,0x3a,0x0a,0x40,0x63,0x6f,0x64,0x65,0x69,0x18,0x3a,0x10,0x40,0x70,0x61,0x72,0x61,0x6d,0x65,0x74,0x65,0x72,0x73,0x5b,0x00,0x6f,0x3b,0x0a,0x07,0x3b,0x0b,0x69,0x00,0x3b,0x0c,0x5b,0x00))
  ShowSpeechBalloon(20,1,true)
  PictureDisplay(5,"80_neris_st02b",0,0,0,0,100,100,0,0)
  PictureMove(5,null,0,0,0,0,100,100,255,0,30,true)
  ShowMessageFace("neris_fc1",1,0,2,4)
  ShowMessage("\\n<Neris>Ah, Luuuuukaaaa. ♪")
  If(0,4,0)
   ShowMessageFace("alice_fc6",0,0,2,5)
   ShowMessage("\\n<Alice>It's Alipheese the 17th!\nSo this raid was your doing!?")
   0()
  EndIf()
  If(0,5,0)
   ShowMessageFace("iriasu_fc4",7,0,2,6)
   ShowMessage("\\n<Ilias>Alipheese the 17th!\nThis raid was your handiwork!?")
   0()
  EndIf()
  ShowMessageFace("",0,0,2,7)
  ShowMessage("Come to think of it, we've heard stories of Alipheese the 17th attacking various powerful yoma all over the world.")
  PictureDisplay(5,"80_neris_st03b",0,0,0,0,100,100,255,0)
  ShowMessageFace("neris_fc1",2,0,2,8)
  ShowMessage("\\n<Neris>Actually, this is bad...\nI'm not supposed to run into Luka here.")
  If(0,4,0)
   ShowMessageFace("alice_fc5",2,0,2,9)
   ShowMessage("\\n<Alice>What in the world are you plotting? It seems like you're just attacking queens and other famous monsters at random.")
   PictureDisplay(5,"80_neris_st01b",0,0,0,0,100,100,255,0)
   ShowMessageFace("neris_fc1",0,0,2,10)
   ShowMessage("\\n<Neris>How rude! It's not random at all...\nBlack Alice's conspirators were crushed beforehand in the correct history.")
   ShowMessageFace("alice_fc6",0,0,2,11)
   ShowMessage("\\n<Alice>All these monsters supported Black Alice in the correct history? What the hell for...?")
   0()
  EndIf()
  If(0,5,0)
   ShowMessageFace("iriasu_fc4",7,0,2,12)
   ShowMessage("\\n<Ilias>It appears that you are indiscriminately attacking powerful monsters. While I applaud your good deeds, your unclear intentions for performing them are a matter of concern.")
   PictureDisplay(5,"80_neris_st01b",0,0,0,0,100,100,255,0)
   ShowMessageFace("neris_fc1",0,0,2,13)
   ShowMessage("\\n<Neris>How rude! My attacks aren't indiscriminate.\nBlack Alice's conspirators were crushed beforehand in the correct history.")
   ShowMessageFace("neris_fc1",0,0,2,14)
   ShowMessage("\\n<Neris>This is all thanks to your plan to recreate the world in the first place! I'm cleaning up YOUR mess in advance!")
   ShowMessageFace("iriasu_fc4",5,0,2,15)
   ShowMessage("\\n<Ilias>Wait, you know about the plan...?\nEven the part about using Black Alice to start a war between monsters and humans?")
   0()
  EndIf()
  241(bytes(0x04,0x08,0x6f,0x3a,0x0d,0x52,0x50,0x47,0x3a,0x3a,0x42,0x47,0x4d,0x08,0x3a,0x0a,0x40,0x6e,0x61,0x6d,0x65,0x49,0x22,0x10,0x73,0x63,0x65,0x6e,0x65,0x5f,0x63,0x6f,0x6d,0x69,0x32,0x06,0x3a,0x06,0x45,0x54,0x3a,0x0c,0x40,0x76,0x6f,0x6c,0x75,0x6d,0x65,0x69,0x69,0x3a,0x0b,0x40,0x70,0x69,0x74,0x63,0x68,0x69,0x69))
  ShowMessageFace("neris_fc1",0,0,2,16)
  ShowMessage("\\n<Neris>Explanations are borrrrrring!")
  PictureClear(5)
  Wait(60)
  250(bytes(0x04,0x08,0x6f,0x3a,0x0c,0x52,0x50,0x47,0x3a,0x3a,0x53,0x45,0x08,0x3a,0x0a,0x40,0x6e,0x61,0x6d,0x65,0x49,0x22,0x0f,0x6d,0x6f,0x6e,0x5f,0x65,0x73,0x63,0x61,0x70,0x65,0x06,0x3a,0x06,0x45,0x54,0x3a,0x0b,0x40,0x70,0x69,0x74,0x63,0x68,0x69,0x69,0x3a,0x0c,0x40,0x76,0x6f,0x6c,0x75,0x6d,0x65,0x69,0x55))
  205(20,bytes(0x04,0x08,0x6f,0x3a,0x13,0x52,0x50,0x47,0x3a,0x3a,0x4d,0x6f,0x76,0x65,0x52,0x6f,0x75,0x74,0x65,0x09,0x3a,0x0c,0x40,0x72,0x65,0x70,0x65,0x61,0x74,0x46,0x3a,0x0f,0x40,0x73,0x6b,0x69,0x70,0x70,0x61,0x62,0x6c,0x65,0x46,0x3a,0x0a,0x40,0x77,0x61,0x69,0x74,0x46,0x3a,0x0a,0x40,0x6c,0x69,0x73,0x74,0x5b,0x18,0x6f,0x3a,0x15,0x52,0x50,0x47,0x3a,0x3a,0x4d,0x6f,0x76,0x65,0x43,0x6f,0x6d,0x6d,0x61,0x6e,0x64,0x07,0x3a,0x0a,0x40,0x63,0x6f,0x64,0x65,0x69,0x22,0x3a,0x10,0x40,0x70,0x61,0x72,0x61,0x6d,0x65,0x74,0x65,0x72,0x73,0x5b,0x06,0x69,0x0b,0x6f,0x3b,0x0a,0x07,0x3b,0x0b,0x69,0x23,0x3b,0x0c,0x5b,0x06,0x69,0x09,0x6f,0x3b,0x0a,0x07,0x3b,0x0b,0x69,0x08,0x3b,0x0c,0x5b,0x00,0x6f,0x3b,0x0a,0x07,0x3b,0x0b,0x69,0x08,0x3b,0x0c,0x5b,0x00,0x6f,0x3b,0x0a,0x07,0x3b,0x0b,0x69,0x08,0x3b,0x0c,0x5b,0x00,0x6f,0x3b,0x0a,0x07,0x3b,0x0b,0x69,0x08,0x3b,0x0c,0x5b,0x00,0x6f,0x3b,0x0a,0x07,0x3b,0x0b,0x69,0x08,0x3b,0x0c,0x5b,0x00,0x6f,0x3b,0x0a,0x07,0x3b,0x0b,0x69,0x08,0x3b,0x0c,0x5b,0x00,0x6f,0x3b,0x0a,0x07,0x3b,0x0b,0x69,0x08,0x3b,0x0c,0x5b,0x00,0x6f,0x3b,0x0a,0x07,0x3b,0x0b,0x69,0x08,0x3b,0x0c,0x5b,0x00,0x6f,0x3b,0x0a,0x07,0x3b,0x0b,0x69,0x08,0x3b,0x0c,0x5b,0x00,0x6f,0x3b,0x0a,0x07,0x3b,0x0b,0x69,0x08,0x3b,0x0c,0x5b,0x00,0x6f,0x3b,0x0a,0x07,0x3b,0x0b,0x69,0x08,0x3b,0x0c,0x5b,0x00,0x6f,0x3b,0x0a,0x07,0x3b,0x0b,0x69,0x08,0x3b,0x0c,0x5b,0x00,0x6f,0x3b,0x0a,0x07,0x3b,0x0b,0x69,0x08,0x3b,0x0c,0x5b,0x00,0x6f,0x3b,0x0a,0x07,0x3b,0x0b,0x69,0x08,0x3b,0x0c,0x5b,0x00,0x6f,0x3b,0x0a,0x07,0x3b,0x0b,0x69,0x08,0x3b,0x0c,0x5b,0x00,0x6f,0x3b,0x0a,0x07,0x3b,0x0b,0x69,0x08,0x3b,0x0c,0x5b,0x00,0x6f,0x3b,0x0a,0x07,0x3b,0x0b,0x69,0x00,0x3b,0x0c,0x5b,0x00))
  ShowMessageFace("neris_fc1",2,0,2,17)
  ShowMessage("\\n<Neris>Run away!")
  If(0,4,0)
   ShowMessageFace("alice_fc5",6,0,2,18)
   ShowMessage("\\n<Alice>Ah...!")
   0()
  EndIf()
  If(0,5,0)
   ShowMessageFace("iriasu_fc4",5,0,2,19)
   ShowMessage("\\n<Ilias>Ah...!")
   0()
  EndIf()
  ShowMessageFace("ruka_fc1",0,0,2,20)
  ShowMessage("\\n<Luka>Ah...!")
  PictureDisplay(5,"80_sirohebisama_st01",0,0,0,0,100,100,0,0)
  PictureMove(5,null,0,0,0,0,100,100,255,0,30,true)
  ShowMessageFace("sirohebisama_fc1",0,0,2,21)
  ShowMessage("\\n<Shirohebi>......")
  ShowMessageFace("sirohebisama_fc1",0,0,2,22)
  ShowMessage("\\n<Shirohebi>What the hell is going on here!?")
  If(0,4,0)
   ShowMessageFace("alice_fc6",1,0,2,23)
   ShowMessage("\\n<Alice>As if we know!")
   0()
  EndIf()
  If(0,5,0)
   ShowMessageFace("iriasu_fc5",0,0,2,24)
   ShowMessage("\\n<Ilias>Don't ask us!")
   0()
  EndIf()
  If(4,226,0)
   ShowMessageFace("sirohebisama_fc1",0,0,2,25)
   ShowMessage("\\n<Shirohebi’>This is rather unsettling...")
   ShowMessageFace("sirohebisama_fc1",2,0,2,26)
   ShowMessage("\\n<Shirohebi>Another one of me!? Does this nightmare have no end!?")
   0()
  EndIf()
  ShowMessageFace("sirohebisama_fc1",0,0,2,27)
  ShowMessage("\\n<Shirohebi>Whatever is going on, you're paying for it!")
  ShowMessageFace("ruka_fc1",0,0,2,28)
  ShowMessage("\\n<Luka>Let's see you try!")
  PictureClear(5)
  SetBattleBGM(bytes(0x04,0x08,0x6f,0x3a,0x0d,0x52,0x50,0x47,0x3a,0x3a,0x42,0x47,0x4d,0x08,0x3a,0x0a,0x40,0x6e,0x61,0x6d,0x65,0x49,0x22,0x0a,0x62,0x6f,0x73,0x73,0x31,0x06,0x3a,0x06,0x45,0x54,0x3a,0x0c,0x40,0x76,0x6f,0x6c,0x75,0x6d,0x65,0x69,0x69,0x3a,0x0b,0x40,0x70,0x69,0x74,0x63,0x68,0x69,0x69))
  ChangeSwitch(22,22,0)
  Battle(0,641,false,false)
  ChangeSwitch(22,22,1)
  SetBattleBGM(bytes(0x04,0x08,0x6f,0x3a,0x0d,0x52,0x50,0x47,0x3a,0x3a,0x42,0x47,0x4d,0x08,0x3a,0x0a,0x40,0x6e,0x61,0x6d,0x65,0x49,0x22,0x0b,0x62,0x61,0x74,0x74,0x6c,0x65,0x06,0x3a,0x06,0x45,0x54,0x3a,0x0c,0x40,0x76,0x6f,0x6c,0x75,0x6d,0x65,0x69,0x69,0x3a,0x0b,0x40,0x70,0x69,0x74,0x63,0x68,0x69,0x69))
  ChangeSwitch(2272,2272,1)
  241(bytes(0x04,0x08,0x6f,0x3a,0x0d,0x52,0x50,0x47,0x3a,0x3a,0x42,0x47,0x4d,0x08,0x3a,0x0a,0x40,0x6e,0x61,0x6d,0x65,0x49,0x22,0x14,0x73,0x63,0x65,0x6e,0x65,0x5f,0x65,0x70,0x69,0x6c,0x6f,0x67,0x75,0x65,0x32,0x06,0x3a,0x06,0x45,0x54,0x3a,0x0c,0x40,0x76,0x6f,0x6c,0x75,0x6d,0x65,0x69,0x69,0x3a,0x0b,0x40,0x70,0x69,0x74,0x63,0x68,0x69,0x69))
  PictureDisplay(5,"80_sirohebisama_st03",0,0,0,0,100,100,0,0)
  PictureMove(5,null,0,0,0,0,100,100,255,0,30,true)
  ShowMessageFace("sirohebisama_fc1",2,0,2,29)
  ShowMessage("\\n<Shirohebi>Unbelievable...\nCompletely defeated in every way...")
  PictureClear(5)
  If(0,4,0)
   ShowMessageFace("alice_fc5",2,0,2,30)
   ShowMessage("\\n<Alice>It looks like she's admitted defeat for now. She probably won't cause any more problems for a while.")
   ShowMessageFace("alice_fc5",3,0,2,31)
   ShowMessage("\\n<Alice>What's with Alipheese the 17th, though?\nIs she stirring up trouble, or is she trying to contain chaos?")
   0()
  EndIf()
  If(0,5,0)
   ShowMessageFace("iriasu_fc4",0,0,2,32)
   ShowMessage("\\n<Ilias>With their leader defeated, things should be relatively quiet around here for a while.")
   ShowMessageFace("iriasu_fc4",2,0,2,33)
   ShowMessage("\\n<Ilias>What's with Alipheese the 17th, though?\nIf she knows about the plan to recreate the world, then...")
   0()
  EndIf()
  ShowMessageFace("ruka_fc1",0,0,2,34)
  ShowMessage("\\n<Luka>Neris said something like she was defeating Black Alice's conspirators in advance, right?")
  If(0,6,0)
   ShowMessageFace("sonia_fc3",0,0,2,35)
   ShowMessage("\\n<Sonya>Hey, Luka...\nWhy are you calling Alipheese the 17th Neris?")
   ShowMessageFace("ruka_fc1",0,0,2,36)
   ShowMessage("\\n<Luka>Ummm, well...\nWhen we first met, she asked me to...")
   ShowMessageFace("sonia_fc3",0,0,2,37)
   ShowMessage("\\n<Sonya>......")
   ShowMessageFace("ruka_fc1",0,0,2,38)
   ShowMessage("\\n<Luka>What are you mad for?")
   0()
  EndIf()
  ShowMessageFace("durahan_fc1",0,0,2,39)
  ShowMessage("\\n<Arthur>Well, leaving your circumstances aside for the moment, I believe we've resolved the issue with the Snake Shrine.")
  314(0,0)
  ChangeVariable(1060,1060,0,0,1)
  If(1,1057,0,3,1)
   If(1,1058,0,1,1)
    If(1,1060,0,1,1)
     If(1,1059,0,3,1)
      ChangeVariable(1055,1055,0,0,3)
      ShowMessageFace("ruka_fc1",0,0,2,40)
      ShowMessage("\\n<Luka>Then we've taken care of all the problems at the four shrines. Let's go give the village elder the good news!")
      TeleportPlayer(0,512,27,15,2,0)
      ChangeVariable(1060,1060,0,0,2)
      EndEventProcessing()
      0()
     EndIf()
     0()
    EndIf()
    0()
   EndIf()
   0()
  EndIf()
  ShowMessageFace("ruka_fc1",0,0,2,41)
  ShowMessage("\\n<Luka>All right, on to the next shrine!")
  TeleportPlayer(0,512,27,15,2,0)
  ChangeVariable(1060,1060,0,0,2)
  EndEventProcessing()
  0()
 PAGE   2
  // condition: variable 1060 >= 1
  0()



EVENT   22
 PAGE   1
  // condition: variable 1060 >= 2
  ShowMessageFace("sirohebisama_fc1",0,0,2,1)
  ShowMessage("\\n<Shirohebi>Hmph, there's no need to be on guard around me. I've learned my lesson.")
  ShowMessageFace("sirohebisama_fc1",0,0,2,2)
  ShowMessage("\\n<Shirohebi>That said, this tiny village is no place for one of my power. If you wish, perhaps I would be willing to accompany you on your travels?")
  ShowMessageFace("sirohebisama_fc1",0,0,2,3)
  ShowMessage("\\n<Shirohebi>Not for free, mind you.\nI'll join your party in exchange for the \\ii[544].")
  If(8,544)
   ShowMessageFace("sirohebisama_fc1",0,0,2,4)
   ShowMessage("\\n<Shirohebi>Hmm, it appears you've brought the \\ni[544]. I shall honor my word and join you then.")
   PictureClear(5)
   205(0,bytes(0x04,0x08,0x6f,0x3a,0x13,0x52,0x50,0x47,0x3a,0x3a,0x4d,0x6f,0x76,0x65,0x52,0x6f,0x75,0x74,0x65,0x09,0x3a,0x0c,0x40,0x72,0x65,0x70,0x65,0x61,0x74,0x46,0x3a,0x0f,0x40,0x73,0x6b,0x69,0x70,0x70,0x61,0x62,0x6c,0x65,0x46,0x3a,0x0a,0x40,0x77,0x61,0x69,0x74,0x54,0x3a,0x0a,0x40,0x6c,0x69,0x73,0x74,0x5b,0x09,0x6f,0x3a,0x15,0x52,0x50,0x47,0x3a,0x3a,0x4d,0x6f,0x76,0x65,0x43,0x6f,0x6d,0x6d,0x61,0x6e,0x64,0x07,0x3a,0x0a,0x40,0x63,0x6f,0x64,0x65,0x69,0x2a,0x3a,0x10,0x40,0x70,0x61,0x72,0x61,0x6d,0x65,0x74,0x65,0x72,0x73,0x5b,0x00,0x6f,0x3b,0x0a,0x07,0x3b,0x0b,0x69,0x0f,0x3b,0x0c,0x5b,0x00,0x6f,0x3b,0x0a,0x07,0x3b,0x0b,0x69,0x2c,0x3b,0x0c,0x5b,0x00,0x6f,0x3b,0x0a,0x07,0x3b,0x0b,0x69,0x00,0x3b,0x0c,0x5b,0x00))
   355("add_actor_ex(226)")
   249(bytes(0x04,0x08,0x6f,0x3a,0x0c,0x52,0x50,0x47,0x3a,0x3a,0x4d,0x45,0x08,0x3a,0x0a,0x40,0x6e,0x61,0x6d,0x65,0x49,0x22,0x0c,0x66,0x61,0x6e,0x66,0x61,0x6c,0x65,0x06,0x3a,0x06,0x45,0x54,0x3a,0x0b,0x40,0x70,0x69,0x74,0x63,0x68,0x69,0x69,0x3a,0x0c,0x40,0x76,0x6f,0x6c,0x75,0x6d,0x65,0x69,0x69))
   ShowMessageFace("",0,0,2,5)
   ShowMessage("Shirohebi has joined the party!")
   Wait(60)
   ChangeSelfSwitch("A",0)
   ShowMessageFace("sirohebisama_fc1",0,0,2,6)
   ShowMessage("\\n<Shirohebi>Though now that I look at it up close, the \\ii[544] has a rather ugly face. I don't want it anymore. You can keep it.")
   0()
  Else()
   ShowMessageFace("ruka_fc1",0,0,2,7)
   ShowMessage("\\n<Luka>Where can we find the \\ni[544]?")
   ShowMessageFace("sirohebisama_fc1",0,0,2,8)
   ShowMessage("\\n<Shirohebi>I've heard it's enshrined in Orochi's cave. Apparently it's stored in a secret treasure room.")
   0()
  EndIf()
  EndEventProcessing()
  0()
 PAGE   2
  // condition: self-switch A is ON
  0()



EVENT   23
 PAGE   1
  // condition: variable 1060 >= 2
  ShowMessageFace("sirohebisama_fc1",3,0,2,1)
  ShowMessage("\\n<Shirohebi>So you defeated my sister? It seems I owe you my thanks.")
  ShowMessageFace("sirohebisama_fc1",3,0,2,2)
  ShowMessage("\\n<Shirohebi>My sister learned her lesson from the incident, at least. She won't cause trouble like that again.")
  0()



EVENT   24
 PAGE   1
  ShowMessageFace("kirin_fc1",2,0,2,1)
  ShowMessage("\\n<Kirin>I'm one of the highest class of great youkai, and yet...")
  0()
 PAGE   2
  // condition: variable 1060 >= 2
  0()



EVENT   25
 PAGE   1
  ShowMessageFace("mikolamia_fc1",2,0,2,1)
  ShowMessage("\\n<Miko Lamia>I have no idea what even happened...")
  0()
 PAGE   2
  // condition: variable 1060 >= 2
  0()



EVENT   26
 PAGE   1
  ShowMessageFace("yukionna_fc1",2,0,2,1)
  ShowMessage("\\n<Yuki-Onna>What a swordsman...\nI couldn't follow her movements at all...")
  0()
 PAGE   2
  // condition: variable 1060 >= 2
  0()



EVENT   27
 PAGE   1
  ShowMessageFace("mikolamia_fc1",0,0,2,1)
  ShowMessage("\\n<Miko Lamia>Men aren't supposed to be in here...\nOh well, I won't make a big deal of it.")
  0()



EVENT   28
 PAGE   1
  ShowMessageFace("mikolamia_fc1",0,0,2,1)
  ShowMessage("\\n<Miko Lamia>I live a pure and righteous life...by day, at least..")
  355("actor_label_jump")
  EndEventProcessing()
  DefineLabel("123")
  ShowMessageFace("sisccubus_fc1",1,0,2,2)
  ShowMessage("\\n<Christie>You look forward to the nights, don't you...?")
  ShowMessageFace("mikolamia_fc1",1,0,2,3)
  ShowMessage("\\n<Miko Lamia>Of course!")
  EndEventProcessing()
  0()



EVENT   29
 PAGE   1
  ShowMessageFace("",0,0,2,1)
  ShowMessage("\\n<Cat>Meeeow.")
  355("actor_label_jump")
  EndEventProcessing()
  DefineLabel("222")
  ShowMessageFace("nekomata_fc1",2,0,2,2)
  ShowMessage("\\n<Tama>Nyaa... ♪")
  EndEventProcessing()
  0()



EVENT   30
 PAGE   1
  // condition: variable 1081 >= 3
  ShowMessageFace("kunoitielf2_fc2",1,0,2,1)
  ShowMessage("\\n<Elf Aide>The princess is waiting for you, Hero Luka.\nThis way please...")
  221()
  TeleportPlayer(0,513,41,34,6,2)
  ChangeSwitch(31,31,0)
  Wait(60)
  216(1)
  222()
  ChangeSwitch(2278,2278,0)
  0()
 PAGE   2
  // condition: switch 2278 is ON
  0()



EVENT   31
 PAGE   1
  // condition: variable 1081 >= 3
  0()
 PAGE   2
  // condition: variable 1081 >= 4
  0()



EVENT   32
 PAGE   1
  // condition: variable 1081 >= 3
  ShowMessageFace("",0,0,2,1)
  ShowMessage("\\n<Elf Blacksmith>On behalf of the princess, I shall be working here for a while. Now, what business do you have for me?")
  ShowChoices(strings("Synthesis","Make Rainbow equipment","Talk"),0)
  IfPlayerPicksChoice(0,null)
   355("call_synthesize(20)")
   EndEventProcessing()
   0()
  IfPlayerPicksChoice(1,null)
   If(8,157)
    Shop(1,26,0,0,false)
    605(1,74,0,0)
    605(1,161,0,0)
    605(1,226,0,0)
    605(1,252,0,0)
    605(1,276,0,0)
    605(1,316,0,0)
    605(1,350,0,0)
    605(1,386,0,0)
    605(1,427,0,0)
    605(1,459,0,0)
    605(1,494,0,0)
    605(1,534,0,0)
    605(1,573,0,0)
    605(1,609,0,0)
    605(1,644,0,0)
    605(1,685,0,0)
    605(1,715,0,0)
    605(1,743,0,0)
    605(1,766,0,0)
    605(1,787,0,0)
    605(1,811,0,0)
    605(1,835,0,0)
    605(1,860,0,0)
    605(2,46,0,0)
    605(2,90,0,0)
    605(2,117,0,0)
    605(2,219,0,0)
    605(2,251,0,0)
    605(2,314,0,0)
    605(0,106,0,0)
    0()
   Else()
    ShowMessageFace("",0,0,2,2)
    ShowMessage("\\n<Elf Blacksmith>Unless I have a rainbow crystal to use as raw material, I cannot produce rainbow equipment for you.")
    EndEventProcessing()
    0()
   EndIf()
   0()
  IfPlayerPicksChoice(2,null)
   ShowMessageFace("",0,0,2,3)
   ShowMessage("\\n<Elf Blacksmith>My sister lives on Fairy's Island.\nWe were always competing to see who the better blacksmith was, so I wonder how she is doing now.")
   EndEventProcessing()
   0()
  404()
  0()



EVENT   33
 PAGE   1
  // condition: variable 1081 >= 3
  ShowMessageFace("",0,0,2,1)
  ShowMessage("\\n<Elf Merchant>I've decided to do business here for a while on the princess's orders. What do you need?")
  Shop(0,2,0,0,false)
  605(0,13,0,0)
  605(0,17,0,0)
  605(0,21,0,0)
  605(0,76,0,0)
  605(0,80,0,0)
  605(1,274,0,0)
  605(2,268,0,0)
  605(2,1047,0,0)
  605(2,1057,0,0)
  605(2,1131,0,0)
  605(2,1139,0,0)
  605(2,1549,0,0)
  605(2,1551,0,0)
  605(2,1553,0,0)
  605(2,1555,0,0)
  605(2,1557,0,0)
  605(2,1559,0,0)
  605(2,1709,0,0)
  If(1,1005,0,19,0)
   If(4,66,0)
    If(0,2065,0)
     If(2,"A",1)
      ChangeSelfSwitch("A",0)
      ShowMessageFace("vgirl_fc1",0,0,2,2)
      ShowMessage("\\n<Vanilla>Pleased to meet you. I'm the merchant Vanilla.\nI'd like to sell white holy stones and black dark stones at my store...")
      ShowMessageFace("",0,0,2,3)
      ShowMessage("\\n<Elf Merchant>The village merchants do not trade with anyone other than elves. However, I have been instructed to provide accomodations for you.")
      ShowMessageFace("",0,0,2,4)
      ShowMessage("\\n<Elf Merchant>So how about this for an exchange deal?\nThere is currently a noble at the elf village seeking a \"Silver Dragon Statue\".")
      ShowMessageFace("vgirl_fc1",0,0,2,5)
      ShowMessage("\\n<Vanilla>If I remember correctly about the \"Silver Dragon Statue\"... It is a work of art that Black Alice possessed.")
      ShowMessageFace("",0,0,2,6)
      ShowMessage("\\n<Elf Merchant>This item has been missing for five-hundred years since Black Alice was slain. I would like for you to do whatever you can to search for it as you skip around the world.")
      If(0,4,0)
       ShowMessageFace("alice_fc5",0,0,2,7)
       ShowMessage("\\n<Alice>The whereabouts of Black Alice's treasures have been unknown since her defeat. Perhaps it'll be easier to find it at a time before she was slain.")
       0()
      EndIf()
      If(0,5,0)
       ShowMessageFace("iriasu_fc4",2,0,2,8)
       ShowMessage("\\n<Ilias>The whereabouts of Black Alice's treasures have been unknown since her defeat. Perhaps it would be quicker to search for it in a time before she was slain.")
       0()
      EndIf()
      EndEventProcessing()
      0()
     Else()
      If(8,553)
       ChangeInventory_Item(553,1,0,1)
       ShowMessageFace("",0,0,2,9)
       ShowMessage("\\n<Elf Merchant>Ah, this is definitely the \"Silver Dragon Statue\"!\nOf course, I will purchase it at a reasonable price.")
       250(bytes(0x04,0x08,0x6f,0x3a,0x0c,0x52,0x50,0x47,0x3a,0x3a,0x53,0x45,0x08,0x3a,0x0a,0x40,0x6e,0x61,0x6d,0x65,0x49,0x22,0x0a,0x49,0x74,0x65,0x6d,0x31,0x06,0x3a,0x06,0x45,0x54,0x3a,0x0b,0x40,0x70,0x69,0x74,0x63,0x68,0x69,0x69,0x3a,0x0c,0x40,0x76,0x6f,0x6c,0x75,0x6d,0x65,0x69,0x55))
       125(0,0,45000)
       ShowMessageFace("",0,0,2,10)
       ShowMessage("The elf merchant purchases the Silver Dragon Statue for 45,000G!")
       ShowMessageFace("",0,0,2,11)
       ShowMessage("\\n<Elf Merchant>Then as promised, I shall trade you holy and dark magic stones. As for the price, there shouldn't be any issues according to our proposal.")
       ShowMessageFace("vgirl_fc1",0,0,2,12)
       ShowMessage("\\n<Vanilla>Thank you!\nI'll be looking forward to it...I assure you!")
       249(bytes(0x04,0x08,0x6f,0x3a,0x0c,0x52,0x50,0x47,0x3a,0x3a,0x4d,0x45,0x08,0x3a,0x0a,0x40,0x6e,0x61,0x6d,0x65,0x49,0x22,0x0c,0x66,0x61,0x6e,0x66,0x61,0x6c,0x65,0x06,0x3a,0x06,0x45,0x54,0x3a,0x0b,0x40,0x70,0x69,0x74,0x63,0x68,0x69,0x69,0x3a,0x0c,0x40,0x76,0x6f,0x6c,0x75,0x6d,0x65,0x69,0x69))
       ShowMessageFace("",0,0,2,13)
       ShowMessage("Vanilla can now sell white holy stones and black dark stones at her shop!")
       ChangeVariable(1005,1005,0,0,20)
       ChangeSwitch(2065,2065,1)
       Wait(60)
       EndEventProcessing()
       0()
      Else()
       ShowMessageFace("",0,0,2,14)
       ShowMessage("\\n<Elf Merchant>How about this for an exchange deal?\nThere is currently a noble at the elf village seeking a \"Silver Dragon Statue\".")
       ShowMessageFace("",0,0,2,15)
       ShowMessage("\\n<Elf Merchant>This item has been missing for five-hundred years since Black Alice was slain. I would like for you to do whatever you can to search for it as you skip around the world.")
       If(0,4,0)
        ShowMessageFace("alice_fc5",0,0,2,16)
        ShowMessage("\\n<Alice>The whereabouts of Black Alice's treasures have been unknown since her defeat. Perhaps it'll be easier to find it at a time before she was slain.")
        0()
       EndIf()
       If(0,5,0)
        ShowMessageFace("iriasu_fc4",2,0,2,17)
        ShowMessage("\\n<Ilias>The whereabouts of Black Alice's treasures have been unknown since her defeat. Perhaps it would be quicker to search for it in a time before she was slain.")
        0()
       EndIf()
       EndEventProcessing()
       0()
      EndIf()
      0()
     EndIf()
     0()
    EndIf()
    0()
   EndIf()
   0()
  EndIf()
  0()



EVENT   34
 PAGE   1
  // condition: variable 1081 >= 3
  0()
 PAGE   2
  // condition: variable 1081 >= 4
  0()



EVENT   35
 PAGE   1
  // condition: switch 6 is ON
  // condition: switch 31 is ON
  // condition: variable 1081 >= 3
  0()
 PAGE   2
  // condition: variable 1081 >= 4
  0()



EVENT   36
 PAGE   1
  250(bytes(0x04,0x08,0x6f,0x3a,0x0c,0x52,0x50,0x47,0x3a,0x3a,0x53,0x45,0x08,0x3a,0x0a,0x40,0x6e,0x61,0x6d,0x65,0x49,0x22,0x0a,0x49,0x74,0x65,0x6d,0x31,0x06,0x3a,0x06,0x45,0x54,0x3a,0x0b,0x40,0x70,0x69,0x74,0x63,0x68,0x69,0x69,0x3a,0x0c,0x40,0x76,0x6f,0x6c,0x75,0x6d,0x65,0x69,0x55))
  ChangeSelfSwitch("A",0)
  ChangeInventory_Item(211,0,0,1)
  0()
 PAGE   2
  // condition: self-switch A is ON
  0()


